EDI_BBCC_20190820
Tablename	ActFlag	AnnounceDate	Acttime	BbccId	SecId	BbcId	OldCntrycd	OldCurencd	EffectiveDate	NewCntrycd	NewCurencd	OldBbgcompId	NewBbgcompId	OldBbgcomptk	NewBbgcomptk	RelEventId	EventType	Notes
BBCC	I	2011/11/09	2011/11/09	395	64853	5886	BR	BRL	2011/10/06	BR	BRL	BBG000C9BGK6	BBG000C9BGK6	TLPP4 BZ	VIVT4 BZ			No further information
BBCC	I	2012/01/09	2012/01/09	1278	85329	5386	BR		2012/01/06	BR		BBG000KJ6Q29	BBG000KJ6Q29	CRTE5 BZ	CRTE5B BZ			No further information
BBCC	I	2012/02/21	2012/02/21	1807	2631679	53301	UA		2012/02/21	UA		BBG0021QTWT3		VTBP UZ			CLEAN	No further information
BBCC	I	2012/04/10	2012/04/10	2983	64520	5223	BR	BRL	2012/04/09	BR	BRL	BBG000PJXMW0	BBG000PJXMW0	BRTO4 BZ	OIBR4 BZ			No further information
BBCC	I	2012/04/24	2012/04/24	3263	70153	66582	DE		2012/04/24	DE		BBG000CLKVQ0		PSM GR			CORR	No further information
BBCC	I	2012/04/24	2012/04/24	3267	168276	60453	DE		2012/04/24	DE		BBG001HTVVF6		TR0 GR			CORR	No further information
BBCC	I	2012/05/17	2012/05/17	3587	3498591	107280	UA		2012/05/17	UA		BBG0021QTWT3		VTBP UZ			CLEAN	No further information
BBCC	I	2012/05/18	2012/05/18	3611	155979	27179	TH	THB	2012/05/17	TH	THB	BBG000BSVBZ8	BBG000BSVBZ8	NFS/P-R TB	TCAP-P-R TB			No further information
BBCC	I	2012/05/29	2012/05/29	3833	426128	5909	BR	BRL	2012/05/28	BR	BRL	BBG000PC7NY0	BBG000PC7NY0	TRNA4 BZ	TAEE4 BZ			No further information
BBCC	I	2012/07/07	2012/07/07	4734	3805601	109112	UA		2012/07/07	UA		BBG0032DQT64		BCRAP UZ			CLEAN	No further information
BBCC	I	2012/08/14	2012/08/14	5286	3759050	108659	KZ		2012/08/14	KZ		BBG002YF6P39		0352329D KZ			CLEAN	No further information
BBCC	I	2012/09/14	2012/09/14	5672	3737366	108463	BR	BRL	2012/09/14	BR	BRL	BBG002XQK2J4		0315747D BZ			CLEAN	No further information
BBCC	I	2012/09/15	2012/09/15	5686	2296256	45294	GB	GBP	2012/09/15	GB	GBP	BBG001CKKBF6		IREZ LN			CLEAN	No further information
BBCC	I	2012/10/04	2012/10/04	5908	3625498	108106	CO	COP	2012/10/03	CO	COP	BBG0027JFBS5	BBG0027JFBS5	PFGRSURA CB	PFGRUPSU CB			No further information
BBCC	I	2012/10/16	2012/10/16	6130	631782	44319	GB	GBP	2012/10/15	GB	GBP	BBG000QB2XW6	BBG000QB2XW6	MERE LN	ERET LN			No further information
BBCC	I	2013/07/17	2013/07/17	9782	60752	89562	US	USD	2013/07/16	US	USD	BBG000C3FF36	BBG000C3FF36	HENOF US	HELKF US			No further information
BBCC	I	2013/07/18	2013/07/18	9816	60752	89562	US	USD	2013/07/17	US	USD	BBG000C3FF36	BBG000C3FF36	HELKF US	HENOF US			No further information
BBCC	I	2013/07/29	2013/07/29	9943	3853026	109344	CO	COP	2013/07/26	CO	COP	BBG002ZL0WR0	BBG002ZL0WR0	PFINVARG CB	PFGRUPOA CB			No further information
BBCC	I	2013/07/31	2013/07/31	9972	3859975	109650	NA	ZAR	2013/07/30	NA	ZAR	BBG000QSJMH2	BBG000QSJMH2	SMSP NW	SILP NW			No further information
BBCC	I	2013/08/05	2013/08/05	10039	74412	8599	ZW	ZWD	2013/07/18	ZW	ZWD	BBG000BZV8F1	BBG000BLWMB4	ARTP ZH	ART ZH		CORR	No further information
BBCC	I	2013/08/21	2013/08/21	10221	4081264	118302	BR		2013/08/20	BR		BBG004XQQQ29	BBG004XQQQ29	MTRP4 BZ	DXXI4 BZ			No further information
BBCC	I	2013/09/05	2013/09/05	10519	3942152	113917	SE		2013/09/05	SE		BBG003LNTLB9		AVTBTA SS			CLEAN	No further information
BBCC	I	2014/01/06	2014/01/06	12129	82340	48971	IT	EUR	2014/01/03	IT	EUR	BBG000BGCT31	BBG000BGCT31	IPGR IM	SALR IM			No further information
BBCC	I	2014/02/24	2014/02/24	12684	647599	55450	DE	EUR	2014/02/24	DE	EUR	BBG000BHVWV0		BTG GR			CORR	No further information
BBCC	I	2014/06/23	2014/06/23	14278	3885437	111752	KZ	KZT	2014/06/20	KZ	KZT	BBG002YF6P39	BBG002YF6P39	0352329D KZ	INBNP KZ			No further information
BBCC	I	2014/08/06	2014/08/06	14772	721149	5172	BR	BRL	2014/08/05	BR	BRL	BBG000RYJY28	BBG000RYJY28	BPNM4 BZ	BPAN4 BZ			No further information
BBCC	I	2014/08/09	2014/08/09	14811	4197903	121946	BR		2014/08/09	BR		BBG000L3KW06		CACO4 BZ			CLEAN	No further information
BBCC	I	2014/09/30	2014/09/30	15286	4081264	118302	BR		2014/09/30	BR		BBG004XQQQ29		DXXI4 BZ			CLEAN	No further information
BBCC	I	2014/09/30	2014/09/30	15287	4192038	121852	BR	BRL	2014/09/30	BR	BRL	BBG00608J882		0949798D BZ			CLEAN	No further information
BBCC	I	2014/09/30	2014/09/30	15288	4192041	121853	BR	BRL	2014/09/30	BR	BRL	BBG00608JB58		0949799D BZ			CLEAN	No further information
BBCC	I	2014/09/30	2014/09/30	15289	4192046	121854	BR		2014/09/30	BR		BBG00608JBF7		0949800D BZ			CLEAN	No further information
BBCC	I	2015/01/05	2015/01/05	16365	4243399	123310	DE		2015/01/05	DE		BBG0069GM4D4		0WI GR			CLEAN	No further information
BBCC	I	2015/03/02	2015/03/02	16968	64657	5273	BR	BRL	2015/02/27	BR	BRL	BBG000BP5MN2	BBG000BP5MN2	CMGR4 BZ	ENMT4 BZ			No further information
BBCC	I	2015/06/16	2015/06/16	17954	60869	43072	GB	EUR	2015/06/16	GB	EUR	BBG000DG2MB6		BOS3 EO			CLEAN	No further information
BBCC	I	2015/06/16	2015/06/16	17956	76751	40258	GB	EUR	2015/06/16	GB	EUR	BBG000CM5B16		BODR EO			CLEAN	No further information
BBCC	I	2015/06/16	2015/06/16	17971	107759	118171	GB	HUF	2015/06/16	GB	HUF	BBG004WHRJD3		FORRAS/O EO			CLEAN	No further information
BBCC	I	2015/06/16	2015/06/16	17984	64654	39782	GB	EUR	2015/06/16	GB	EUR	BBG000D4N876		BKUSV EO			CLEAN	No further information
BBCC	I	2015/06/16	2015/06/16	17988	60746	43822	GB	EUR	2015/06/16	GB	EUR	BBG000D32XC0		KSB3 EO			CLEAN	No further information
BBCC	I	2015/06/16	2015/06/16	17991	60919	44516	GB	EUR	2015/06/16	GB	EUR	BBG000C4DN02		MUT3 EO			CLEAN	No further information
BBCC	I	2015/06/16	2015/06/16	17993	64397	44941	GB	EUR	2015/06/16	GB	EUR	BBG000D4J9W1		OBV EO			CLEAN	No further information
BBCC	I	2015/06/16	2015/06/16	18010	64658	39784	GB	EUR	2015/06/16	GB	EUR	BBG000D4SJM0		BTUVV EO			CLEAN	No further information
BBCC	I	2015/06/16	2015/06/16	18014	82572	47292	GB	EUR	2015/06/16	GB	EUR	BBG000CLDJV9		ZUCR EO			CLEAN	No further information
BBCC	I	2015/06/16	2015/06/16	18109	60623	39857	GB	EUR	2015/06/16	GB	EUR	BBG000DG53T6		BKS3 EO			CLEAN	No further information
BBCC	I	2015/06/16	2015/06/16	18244	60848	42109	GB	EUR	2015/06/16	GB	EUR	BBG000K94C51		EUK3 EO			CLEAN	No further information
BBCC	I	2015/06/16	2015/06/16	18313	65545	42533	GB	EUR	2015/06/16	GB	EUR	BBG000D5LPZ6		GWK3 EO			CLEAN	No further information
BBCC	I	2015/06/16	2015/06/16	18337	60425	43076	GB	EUR	2015/06/16	GB	EUR	BBG000GPXHF6		HUDP EO			CLEAN	No further information
BBCC	I	2015/06/16	2015/06/16	18374	65530	43601	GB	EUR	2015/06/16	GB	EUR	BBG000DKHHN9		JUN3 EO			CLEAN	No further information
BBCC	I	2015/06/16	2015/06/16	18438	60760	42924	GB	EUR	2015/06/16	GB	EUR	BBG000QSLZR9		MBH3 EO			CLEAN	No further information
BBCC	I	2015/06/16	2015/06/16	18450	60913	44459	GB	EUR	2015/06/16	GB	EUR	BBG000QR6WF8		MEO3 EO			CLEAN	No further information
BBCC	I	2015/06/16	2015/06/16	18653	60825	46535	GB	EUR	2015/06/16	GB	EUR	BBG000D76V04		STO3 EO			CLEAN	No further information
BBCC	I	2015/06/16	2015/06/16	18688	104534	46742	GB	EUR	2015/06/16	GB	EUR	BBG000R38LH0		TITR LI			CLEAN	No further information
BBCC	I	2015/06/16	2015/06/16	18973	325741	45959	GB	SEK	2015/06/16	GB	SEK	BBG000KDCSH5		SAGAP EO			CLEAN	No further information
BBCC	I	2015/06/16	2015/06/16	19233	64765	47478	GB	EUR	2015/06/16	GB	EUR	BBG000QSNB90		AAAP EO			CLEAN	No further information
BBCC	I	2015/06/16	2015/06/16	19311	60752	42912	GB	EUR	2015/06/16	GB	EUR	BBG000R38P90		HEN3 LI			CLEAN	No further information
BBCC	I	2015/06/16	2015/06/16	19444	83713	45765	GB	EUR	2015/06/16	GB	EUR	BBG000D3TB39		RDM/Q EO			CLEAN	No further information
BBCC	I	2015/06/16	2015/06/16	19473	60882	45402	GB	EUR	2015/06/16	GB	EUR	BBG000R38S03		PAH3 LI			CLEAN	No further information
BBCC	I	2015/06/16	2015/06/16	19503	63654	43503	GB	EUR	2015/06/16	GB	EUR	BBG000D82GS9		MPP1 EO			CLEAN	No further information
BBCC	I	2015/06/16	2015/06/16	19535	69968	47463	GB	EUR	2015/06/16	GB	EUR	BBG000DFZRN8		WKM3 EO			CLEAN	No further information
BBCC	I	2015/06/16	2015/06/16	19601	60772	41467	GB	EUR	2015/06/16	GB	EUR	BBG000D8MGB5		DRW3 EO			CLEAN	No further information
BBCC	I	2015/06/16	2015/06/16	19710	60892	44247	GB	EUR	2015/06/16	GB	EUR	BBG000HZQ4T5		MAN3 EO			CLEAN	No further information
BBCC	I	2015/06/16	2015/06/16	19772	64390	42453	GB	EUR	2015/06/16	GB	EUR	BBG000KPMKX6		FPE3 LI			CLEAN	No further information
BBCC	I	2015/06/16	2015/06/16	20003	64660	40290	GB	DKK	2015/06/16	GB	DKK	BBG000CJF5L3		AOJP EO			CLEAN	No further information
BBCC	I	2015/06/16	2015/06/16	20022	64672	45097	GB	EUR	2015/06/16	GB	EUR	BBG000DFN4J7		OTV EO			CLEAN	No further information
BBCC	I	2015/06/16	2015/06/16	20025	60317	39170	GB	EUR	2015/06/16	GB	EUR	BBG000G95MC5		AGR31 EO			CLEAN	No further information
BBCC	I	2015/06/16	2015/06/16	20044	60693	104619	GB	EUR	2015/06/16	GB	EUR	BBG000D9L029		DAL3 EO			CLEAN	No further information
BBCC	I	2015/06/16	2015/06/16	20087	65534	42438	GB	EUR	2015/06/16	GB	EUR	BBG000D2Q7N1		FRO3 EO			CLEAN	No further information
BBCC	I	2015/06/16	2015/06/16	20091	60964	47375	GB	EUR	2015/06/16	GB	EUR	BBG000DLRP30		WTB3 EO			CLEAN	No further information
BBCC	I	2015/06/16	2015/06/16	20103	1756420	40833	GB	SEK	2015/06/16	GB	SEK	BBG000K3J6C3		COREP EO			CLEAN	No further information
BBCC	I	2015/06/16	2015/06/16	20447	78238	41050	GB	EUR	2015/06/16	GB	EUR	BBG000DF67F3		DANR EO			CLEAN	No further information
BBCC	I	2015/06/16	2015/06/16	20448	1359377	42166	GB	EUR	2015/06/16	GB	EUR	BBG000BZVQP0		EXR1 EO			CLEAN	No further information
BBCC	I	2015/06/16	2015/06/16	20449	82340	43198	GB	EUR	2015/06/16	GB	EUR	BBG000D8KPM5		IPGR EO			CLEAN	No further information
BBCC	I	2015/06/16	2015/06/16	20451	82561	43747	GB	EUR	2015/06/16	GB	EUR	BBG000D1D301		KMER EO			CLEAN	No further information
BBCC	I	2015/06/16	2015/06/16	20452	77800	46519	GB	EUR	2015/06/16	GB	EUR	BBG000DCQSS8		STEFR EO			CLEAN	No further information
BBCC	I	2015/06/16	2015/06/16	20460	65519	39181	GB	EUR	2015/06/16	GB	EUR	BBG000DNSGY1		AAH3 EO			CLEAN	No further information
BBCC	I	2015/06/16	2015/06/16	20487	60868	39986	GB	EUR	2015/06/16	GB	EUR	BBG000J1XMQ3		BIO3 EO			CLEAN	No further information
BBCC	I	2015/06/16	2015/06/16	20515	60789	41556	GB	EUR	2015/06/16	GB	EUR	BBG000QVRJL8		EDD3 EO			CLEAN	No further information
BBCC	I	2015/06/16	2015/06/16	20517	60816	41603	GB	EUR	2015/06/16	GB	EUR	BBG000DHBQT6		EIN3 EO			CLEAN	No further information
BBCC	I	2015/06/16	2015/06/16	20550	60724	42781	GB	EUR	2015/06/16	GB	EUR	BBG000K6FRX1		HGL3 EO			CLEAN	No further information
BBCC	I	2015/06/16	2015/06/16	20594	63450	44478	GB	EUR	2015/06/16	GB	EUR	BBG000DL9KS4		MHXAP EO			CLEAN	No further information
BBCC	I	2015/06/16	2015/06/16	20656	78859	45946	GB	EUR	2015/06/16	GB	EUR	BBG000QVPM24		SGR EO			CLEAN	No further information
BBCC	I	2015/06/16	2015/06/16	20657	82339	39766	GB	EUR	2015/06/16	GB	EUR	BBG000CHM664		BNDS EO			CLEAN	No further information
BBCC	I	2015/06/16	2015/06/16	20659	60756	46010	GB	EUR	2015/06/16	GB	EUR	BBG000D1GSQ5		SRT3 EO			CLEAN	No further information
BBCC	I	2015/06/16	2015/06/16	20718	60973	47414	GB	EUR	2015/06/16	GB	EUR	BBG000DF0W91		WUG3 EO			CLEAN	No further information
BBCC	I	2015/06/16	2015/06/16	20753	286900	45548	GB	EUR	2015/06/16	GB	EUR	BBG000TNW7F0		PPDG EO			CLEAN	No further information
BBCC	I	2015/06/16	2015/06/16	20793	64763	46869	GB	EUR	2015/06/16	GB	EUR	BBG000DM81Z7		TITP EO			CLEAN	No further information
BBCC	I	2015/06/16	2015/06/16	20871	76841	40375	GB	EUR	2015/06/16	GB	EUR	BBG000JRGCK3		BZUR EO			CLEAN	No further information
BBCC	I	2015/06/16	2015/06/16	20882	60798	46244	GB	EUR	2015/06/16	GB	EUR	BBG000D2F9P7		SIX3 EO			CLEAN	No further information
BBCC	I	2015/06/16	2015/06/16	20903	78864	45966	GB	EUR	2015/06/16	GB	EUR	BBG000DDCH05		SPMR EO			CLEAN	No further information
BBCC	I	2015/06/16	2015/06/16	20984	60861	39847	GB	EUR	2015/06/16	GB	EUR	BBG000R38NB2		BMW3 LI			CLEAN	No further information
BBCC	I	2015/06/16	2015/06/16	21086	86288	39765	GB	EUR	2015/06/16	GB	EUR	BBG000QS9CC0		BDBR EO			CLEAN	No further information
BBCC	I	2015/06/16	2015/06/16	21191	2117834	42264	GB	EUR	2015/06/16	GB	EUR	BBG001D03YD0		FIP2 EO			CLEAN	No further information
BBCC	I	2015/06/16	2015/06/16	21192	2117857	42265	GB	EUR	2015/06/16	GB	EUR	BBG001D04061		FIR EO			CLEAN	No further information
BBCC	I	2015/06/16	2015/06/16	21428	419432	43371	GB	EUR	2015/06/16	GB	EUR	BBG000QNPRJ3		XYLEP EO			CLEAN	No further information
BBCC	I	2015/06/16	2015/06/16	21509	60956	47283	GB	EUR	2015/06/16	GB	EUR	BBG000D64818		VIB3 EO			CLEAN	No further information
BBCC	I	2015/06/16	2015/06/16	21566	64737	39417	GB	EUR	2015/06/16	GB	EUR	BBG000M2T7D9		ANEP EO			CLEAN	No further information
BBCC	I	2015/06/16	2015/06/16	21572	64735	39416	GB	EUR	2015/06/16	GB	EUR	BBG001KHX3H6		ANEPO EO			CLEAN	No further information
BBCC	I	2015/06/16	2015/06/16	21628	60960	47336	GB	EUR	2015/06/16	GB	EUR	BBG000G6VK90		50IT LN			CLEAN	No further information
BBCC	I	2015/06/16	2015/06/16	21846	3252524	117907	GB		2015/06/16	GB		BBG004TRQPF0		PREVA EO			CLEAN	No further information
BBCC	I	2015/06/16	2015/06/16	21851	4037161	117895	GB		2015/06/16	GB		BBG004TRQN01		FPARPREF EO			CLEAN	No further information
BBCC	I	2015/06/16	2015/06/16	21855	3105722	118073	GB		2015/06/16	GB		BBG004V9K9K3		INAP EO			CLEAN	No further information
BBCC	I	2015/06/16	2015/06/16	22135	4045922	123508	GB		2015/06/16	GB		BBG0058MG3P0		VLAPEUR EO			CLEAN	No further information
BBCC	I	2015/06/16	2015/06/16	22139	3978911	123492	GB		2015/06/16	GB		BBG0058MDSD1		GAGVEUR EO			CLEAN	No further information
BBCC	I	2015/06/16	2015/06/16	22378	4391043	128844	GB	SEK	2015/06/16	GB	SEK	BBG007Q112W2		HEMFPSEK EO			CLEAN	No further information
BBCC	I	2015/06/16	2015/06/16	22380	3334203	107489	GB	SEK	2015/06/16	GB	SEK	BBG002Q55TY9		KLOVPREF EO			CLEAN	No further information
BBCC	I	2015/06/16	2015/06/16	22388	96365	46090	GB	EUR	2015/06/16	GB	EUR	BBG000RV78Z8		PGR EO			CLEAN	No further information
BBCC	I	2015/06/16	2015/06/16	22420	86933	39744	GB	EUR	2015/06/16	GB	EUR	BBG000QWZM30		CRGR EO			CLEAN	No further information
BBCC	I	2015/06/16	2015/06/16	22423	4499136	132315	GB	SEK	2015/06/16	GB	SEK	BBG008NYWB66		OPPR1SEK EO			CLEAN	No further information
BBCC	I	2015/07/01	2015/07/01	22599	82561	49024	IT	EUR	2015/06/30	IT	EUR	BBG000BCRDC9	BBG000BCRDC9	KMER IM	IKGR IM			No further information
BBCC	I	2015/08/27	2015/08/27	23274	67510	5678	BR	BRL	2015/08/26	BR	BRL	BBG000C1W793	BBG000C1W793	TIBR5 BZ	CRPG5 BZ			No further information
BBCC	I	2015/08/27	2015/08/27	23275	67509	5677	BR	BRL	2015/08/26	BR	BRL	BBG000C1WCZ3	BBG000C1WCZ3	TIBR6 BZ	CRPG6 BZ			No further information
BBCC	I	2015/09/24	2015/09/24	23530	3662757	109699	US	USD	2015/09/24	US	USD	BBG000R2TTJ0		ADPAO US			CLEAN	No further information
BBCC	I	2015/10/13	2015/10/13	23725	4559199	133501	US	USD	2015/10/13	US	USD	BBG009LD73H6		MLPV US			CLEAN	No further information
BBCC	I	2015/12/28	2015/12/28	24512	4624889	136100	US		2015/12/28	US	USD	BBG00B59JJG1	BBG00B59JJG1	MLPB US	MLPB US			No further information
BBCC	I	2016/06/07	2016/06/07	26669	4499136	132029	SE	SEK	2016/05/16	SE	SEK	BBG008NNW8Z5	BBG008NNW8Z5	OPPREFB SS	OPPREF SS		CORR	No further information
BBCC	I	2016/06/21	2016/06/21	26882	96365	49266	IT	EUR	2016/06/20	IT	EUR	BBG000GMDRS9	BBG000GMDRS9	PGR IM	IOLR IM			No further information
BBCC	I	2016/08/22	2016/08/22	27657	65016	56007	DE	BRL	2016/07/25	DE	EUR	BBG000PV64H0	BBG000PV64H0	BRDA GR	BRDA GR		CORR	No further information
BBCC	I	2016/12/10	2016/12/12	29063	3572541	107682	US	USD	2016/12/09	US	USD	BBG002MYFQQ4	BBG002MYFQQ4	UWTI US	UWTIF US			No further information
BBCC	I	2016/12/10	2016/12/12	29064	3572576	107687	US	USD	2016/12/09	US	USD	BBG002MYFRN5	BBG002MYFRN5	DWTI US	DWTIF US			No further information
BBCC	I	2017/01/19	2017/01/19	29470	4121308	119512	GB	USD	2017/01/19	GB	USD	BBG005CW6P93		DPA LN			CLEAN	No further information
BBCC	I	2017/02/10	2017/02/10	29748	4952535	213616	US	GBP	2017/01/28	US	GBP	BBG000K4VC98		RLLRF US			CORR	No further information
BBCC	I	2017/06/27	2017/06/27	31429	64832	5965	BR	BRL	2017/06/26	BR	BRL	BBG000C0XWL5	BBG000C0XWL5	SGAS4 BZ	WLMM4 BZ			No further information
BBCC	I	2017/07/06	2017/07/06	31550	3572601	184911	DE		2017/07/05	DE		BBG00DKK49J0	BBG00DKK49J0	0CHA GR	0CHN GR			No further information
BBCC	I	2017/07/08	2017/07/10	31606	4800631	142789	SE	SEK	2017/07/08	SE	SEK	BBG00D3JM2C4	BBG00D3JM2C4	QARTMTFP SS	QUARPREF SS		CORR	No further information
BBCC	I	2017/07/14	2017/07/14	31676	60913	64212	DE	EUR	2017/07/13	DE	EUR	BBG000H4TL40	BBG000H4TL40	MEO3 GR	CEC1 GR			No further information
BBCC	I	2017/11/03	2017/11/03	33404	4652072	139202	GB	GBP	2017/11/02	GB	GBP	BBG00BSY73K4	BBG00BSY73K4	PEZ LN	PGIZ LN			No further information
BBCC	I	2017/12/27	2017/12/27	34031	1227447	81280	US	USD	2017/12/26	US	USD	BBG000TK8BJ0	BBG000TK8BJ0	GAZ US	GAZZF US		BBCC	No further information
BBCC	I	2018/04/14	2018/04/16	35436	1227389	81272	US	USD	2018/04/13	US	USD	BBG000BD0G84	BBG000BD0G84	JYN US	JYNFF US		BBCC	No further information
BBCC	I	2018/04/14	2018/04/16	35437	2028625	81297	US	USD	2018/04/13	US	USD	BBG000BDM637	BBG000BDM637	XXV US	XXVFF US		BBCC	No further information
BBCC	I	2018/04/14	2018/04/16	35438	1206899	81265	US	USD	2018/04/13	US	USD	BBG000BF7238	BBG000BF7238	GBB US	GBBEF US		BBCC	No further information
BBCC	I	2018/04/14	2018/04/16	35439	1206830	81264	US	USD	2018/04/13	US	USD	BBG000BFBQ58	BBG000BFBQ58	ERO US	EROTF US		BBCC	No further information
BBCC	I	2018/04/14	2018/04/16	35441	1227449	81281	US	USD	2018/04/13	US	USD	BBG000C4X322	BBG000C4X322	COW US	COWTF US		BBCC	No further information
BBCC	I	2018/04/14	2018/04/16	35442	1227416	81275	US	USD	2018/04/13	US	USD	BBG000GFMG71	BBG000GFMG71	BAL US	BALTF US		BBCC	No further information
BBCC	I	2018/04/14	2018/04/16	35443	1227383	81271	US	USD	2018/04/13	US	USD	BBG000GK5644	BBG000GK5644	JJU US	JJUFF US		BBCC	No further information
BBCC	I	2018/04/14	2018/04/16	35444	1227407	81273	US	USD	2018/04/13	US	USD	BBG000GKFPS5	BBG000GKFPS5	JO US	JJOFF US		BBCC	No further information
BBCC	I	2018/04/14	2018/04/16	35445	1227462	81284	US	USD	2018/04/13	US	USD	BBG000GKSCG3	BBG000GKSCG3	PGM US	PGMFF US		BBCC	No further information
BBCC	I	2018/04/14	2018/04/16	35446	1227456	81283	US	USD	2018/04/13	US	USD	BBG000GKYVJ1	BBG000GKYVJ1	JJP US	JJPFF US		BBCC	No further information
BBCC	I	2018/04/14	2018/04/16	35447	1227463	81285	US	USD	2018/04/13	US	USD	BBG000GL1R59	BBG000GL1R59	JJS US	JJSSF US		BBCC	No further information
BBCC	I	2018/04/14	2018/04/16	35448	1227469	81286	US	USD	2018/04/13	US	USD	BBG000GL4GY8	BBG000GL4GY8	SGG US	SGGFF US		BBCC	No further information
BBCC	I	2018/04/14	2018/04/16	35449	1227471	81287	US	USD	2018/04/13	US	USD	BBG000GL7472	BBG000GL7472	JJT US	JJTFF US		BBCC	No further information
BBCC	I	2018/04/14	2018/04/16	35450	1227478	81288	US	USD	2018/04/13	US	USD	BBG000GL8PY4	BBG000GL8PY4	GRN US	GRNTF US		BBCC	No further information
BBCC	I	2018/04/14	2018/04/16	35451	1206778	81263	US	USD	2018/04/13	US	USD	BBG000JL6Z62	BBG000JL6Z62	OIL US	OILNF US		BBCC	No further information
BBCC	I	2018/04/14	2018/04/16	35452	1206912	81266	US	USD	2018/04/13	US	USD	BBG000PNQP16	BBG000PNQP16	INP US	INPTF US		BBCC	No further information
BBCC	I	2018/04/14	2018/04/16	35453	1227349	81269	US	USD	2018/04/13	US	USD	BBG000QJW7N3	BBG000QJW7N3	JJA US	JJATF US		BBCC	No further information
BBCC	I	2018/04/14	2018/04/16	35454	1227427	81277	US	USD	2018/04/13	US	USD	BBG000QJWL25	BBG000QJWL25	JJG US	JJGTF US		BBCC	No further information
BBCC	I	2018/04/14	2018/04/16	35455	1227410	81274	US	USD	2018/04/13	US	USD	BBG000QJWSX6	BBG000QJWSX6	JJC US	JJCTF US		BBCC	No further information
BBCC	I	2018/04/14	2018/04/16	35456	1227455	81282	US	USD	2018/04/13	US	USD	BBG000QJX5W6	BBG000QJX5W6	JJN US	JJNTF US		BBCC	No further information
BBCC	I	2018/04/14	2018/04/16	35457	1189387	81262	US	USD	2018/04/13	US	USD	BBG000R87JP6	BBG000R87JP6	BWV US	BWVTF US		BBCC	No further information
BBCC	I	2018/04/14	2018/04/16	35458	1227423	81276	US	USD	2018/04/13	US	USD	BBG000THTYC1	BBG000THTYC1	JJE US	JJETF US		BBCC	No further information
BBCC	I	2018/04/14	2018/04/16	35459	1227436	81278	US	USD	2018/04/13	US	USD	BBG000TK8K64	BBG000TK8K64	JJM US	JJMTF US		BBCC	No further information
BBCC	I	2018/04/14	2018/04/16	35460	1236761	81290	US	USD	2018/04/13	US	USD	BBG000V8GT06	BBG000V8GT06	JEM US	JEMTF US		BBCC	No further information
BBCC	I	2018/04/14	2018/04/16	35461	1227480	81289	US	USD	2018/04/13	US	USD	BBG000V960K6	BBG000V960K6	ICI US	ICITF US		BBCC	No further information
BBCC	I	2018/04/14	2018/04/16	35462	1236820	81291	US	USD	2018/04/13	US	USD	BBG000VB1M00	BBG000VB1M00	PGD US	PGDDF US		BBCC	No further information
BBCC	I	2018/04/14	2018/04/16	35463	1244511	81292	US	USD	2018/04/13	US	USD	BBG000VG3YB9	BBG000VG3YB9	AYT US	AYTEF US		BBCC	No further information
BBCC	I	2018/04/14	2018/04/16	35464	3295812	103756	US	USD	2018/04/13	US	USD	BBG0019P5C82	BBG0019P5C82	EMLB US	EMLBF US		BBCC	No further information
BBCC	I	2018/04/14	2018/04/16	35465	3295805	103755	US	USD	2018/04/13	US	USD	BBG0019P5D44	BBG0019P5D44	MFLA US	MFLAF US		BBCC	No further information
BBCC	I	2018/04/14	2018/04/16	35466	3295709	103753	US	USD	2018/04/13	US	USD	BBG0019P5JH7	BBG0019P5JH7	ROLA US	ROLAF US		BBCC	No further information
BBCC	I	2018/04/14	2018/04/16	35467	3295759	103754	US	USD	2018/04/13	US	USD	BBG0019P5L55	BBG0019P5L55	RTLA US	RTLAF US		BBCC	No further information
BBCC	I	2018/04/14	2018/04/16	35468	3295680	103752	US	USD	2018/04/13	US	USD	BBG0019P5MX2	BBG0019P5MX2	SFLA US	SFLAF US		BBCC	No further information
BBCC	I	2018/04/25	2018/04/25	35757	1227514	85560	US	USD	2018/04/24	US	USD	BBG000BG1009	BBG000BG1009	AGA US	AGATF US		BBCC	No further information
BBCC	I	2018/08/07	2018/08/07	38163	1227518	85563	US	USD	2018/08/06	US	USD	BBG000VGZ8T2	BBG000VGZ8T2	ADZ US	ADZCF US		BBCC	No further information
BBCC	I	2018/08/15	2018/08/15	38425	1227515	85561	US	USD	2018/08/14	US	USD	BBG000DWF0X1	BBG000DWF0X1	DEE US	DEENF US		BBCC	No further information
BBCC	I	2018/08/15	2018/08/15	38432	64645	66117	DE	BRL	2018/02/26	DE	EUR	BBG000CH0WT6	BBG000CH0WT6	PJXB GR	PJXB GR		CORR	No further information
BBCC	I	2018/09/13	2018/09/13	39063	106911	12587	PE	PEN	2018/09/12	PE	PEN	BBG000PX3BK9	BBG000PX3BK9	FINANPC1 PE	BPICHPC1 PE		BBCC	No further information
BBCC	I	2018/10/26	2018/10/26	40659	2065800	81254	US	USD	2018/10/25	US	USD	BBG0014JT2C2	BBG0014JT2C2	DLBL US	DLBLF US		BBCC	No further information
BBCC	I	2018/11/17	2018/11/19	41196	4967431	214866	US		2018/11/16	US		BBG00FBD28S5	BBG00FBD28S5	OILB US	OIL US		BBCC	No further information
BBCC	I	2018/11/17	2018/11/19	41197	5076023	229573	US	USD	2018/11/16	US	USD	BBG00G5HK375	BBG00G5HK375	GAZB US	GAZ US		BBCC	No further information
BBCC	I	2018/11/17	2018/11/19	41198	5400918	283691	US	USD	2018/11/16	US	USD	BBG00JRY2LL2	BBG00JRY2LL2	JJAB US	JJA US		BBCC	No further information
BBCC	I	2018/11/17	2018/11/19	41199	5400957	283698	US	USD	2018/11/16	US	USD	BBG00JRY2T26	BBG00JRY2T26	JJMB US	JJM US		BBCC	No further information
BBCC	I	2018/11/17	2018/11/19	41200	5400935	283692	US	USD	2018/11/16	US	USD	BBG00JRY3064	BBG00JRY3064	JJUB US	JJU US		BBCC	No further information
BBCC	I	2018/11/17	2018/11/19	41201	5400937	283693	US	USD	2018/11/16	US	USD	BBG00JRY3812	BBG00JRY3812	BJO US	JO US		BBCC	No further information
BBCC	I	2018/11/17	2018/11/19	41202	5400962	283699	US	USD	2018/11/16	US	USD	BBG00JRY3TZ9	BBG00JRY3TZ9	COWB US	COW US		BBCC	No further information
BBCC	I	2018/11/17	2018/11/19	41203	5400944	283694	US	USD	2018/11/16	US	USD	BBG00JRY3VR3	BBG00JRY3VR3	JJCB US	JJC US		BBCC	No further information
BBCC	I	2018/11/17	2018/11/19	41204	5400956	283697	US	USD	2018/11/16	US	USD	BBG00JRY3WM6	BBG00JRY3WM6	JJGB US	JJG US		BBCC	No further information
BBCC	I	2018/11/17	2018/11/19	41205	5401588	283705	US	USD	2018/11/16	US	USD	BBG00JRY3YJ6	BBG00JRY3YJ6	JJTB US	JJT US		BBCC	No further information
BBCC	I	2018/11/17	2018/11/19	41206	5400953	283696	US	USD	2018/11/16	US	USD	BBG00JRY4385	BBG00JRY4385	JJEB US	JJE US		BBCC	No further information
BBCC	I	2018/11/17	2018/11/19	41207	5400963	283700	US	USD	2018/11/16	US	USD	BBG00JRY4GN9	BBG00JRY4GN9	BJJN US	JJN US		BBCC	No further information
BBCC	I	2018/11/17	2018/11/19	41208	5401571	283704	US	USD	2018/11/16	US	USD	BBG00JRY6Q37	BBG00JRY6Q37	SGGB US	SGG US		BBCC	No further information
BBCC	I	2018/11/17	2018/11/19	41209	5401546	283703	US	USD	2018/11/16	US	USD	BBG00JRY7XM0	BBG00JRY7XM0	JJSB US	JJS US		BBCC	No further information
BBCC	I	2018/11/17	2018/11/19	41210	5401486	283702	US	USD	2018/11/16	US	USD	BBG00JRY81D9	BBG00JRY81D9	JJPB US	JJP US		BBCC	No further information
BBCC	I	2018/11/17	2018/11/19	41211	5400965	283701	US	USD	2018/11/16	US	USD	BBG00JRY83W4	BBG00JRY83W4	PGMB US	PGM US		BBCC	No further information
BBCC	I	2018/11/17	2018/11/19	41212	5400948	283695	US	USD	2018/11/16	US	USD	BBG00JRYCGJ5	BBG00JRYCGJ5	BALB US	BAL US		BBCC	No further information
BBCC	I	2018/12/04	2018/12/04	41606	69970	250584	DE	EUR	2018/12/03	DE	EUR	BBG000BWVJJ0	BBG000BWVJJ0	EKK3 GR	EKK0 GR		BBCC	No further information
BBCC	I	2019/05/13	2019/05/13	48685	4312012	125324	US		2019/05/13	US	USD	BBG006QWNLZ7	BBG006QWNLZ7	TAPR US	TAPR US		CORR	No further information
BBCC	I	2019/06/10	2019/06/10	50823	5252550	262466	SE		2019/06/10	SE		BBG00HL46MW0	BBG00HL46MW0	CREFPREF SS	CF1PREFP SS		BBCC	No further information
BBCC	I	2019/06/10	2019/06/10	50843	5169406	242434	SE		2019/06/10	SE		BBG00GW120N8	BBG00GW120N8	PMTFPREF SS	PHYRPREF SS		BBCC	No further information
BBCC	I	2019/06/11	2019/06/11	50962	1201588	85543	US	USD	2019/06/11	US	USD	BBG000TVY911	BBG000TVY911	DOD US	DODXF US		BBCC	No further information
BBCC	I	2019/06/11	2019/06/11	50963	1201698	85546	US	USD	2019/06/11	US	USD	BBG000TKK8G6	BBG000TKK8G6	WMW US	WMWXF US		BBCC	No further information
BBCC	I	2019/06/11	2019/06/11	50964	1206895	85551	US	USD	2019/06/11	US	USD	BBG000GGWJC6	BBG000GGWJC6	SZO US	SZOXF US		BBCC	No further information
BBCC	I	2019/06/11	2019/06/11	50965	1206909	85552	US	USD	2019/06/11	US	USD	BBG000GGTW86	BBG000GGTW86	OLO US	OLOXF US		BBCC	No further information
BBCC	I	2019/06/11	2019/06/11	50966	1227498	85554	US	USD	2019/06/11	US	USD	BBG000GDGKJ1	BBG000GDGKJ1	BDD US	BDDXF US		BBCC	No further information
BBCC	I	2019/06/11	2019/06/11	50967	1227499	85555	US	USD	2019/06/11	US	USD	BBG000VGZF61	BBG000VGZF61	DAG US	DAGXF US		BBCC	No further information
BBCC	I	2019/06/11	2019/06/11	50968	1227504	85556	US	USD	2019/06/11	US	USD	BBG000GDH0C1	BBG000GDH0C1	BOM US	BOMMF US		BBCC	No further information
BBCC	I	2019/06/11	2019/06/11	50969	1227511	85558	US	USD	2019/06/11	US	USD	BBG000GDCY96	BBG000GDCY96	BOS US	BOSXF US		BBCC	No further information
BBCC	I	2019/06/11	2019/06/11	50970	1227513	85559	US	USD	2019/06/11	US	USD	BBG000DWCHH5	BBG000DWCHH5	DYY US	DYYXF US		BBCC	No further information
BBCC	I	2019/06/11	2019/06/11	50971	1227516	85562	US	USD	2019/06/11	US	USD	BBG000VGZ3C1	BBG000VGZ3C1	AGF US	AGFXF US		BBCC	No further information
BBCC	I	2019/06/11	2019/06/11	50972	1227526	85565	US	USD	2019/06/11	US	USD	BBG000DVF2W0	BBG000DVF2W0	DDP US	DDPXF US		BBCC	No further information
BBCC	I	2019/06/11	2019/06/11	50973	4123415	119618	US	USD	2019/06/11	US	USD	BBG005CZBLZ0	BBG005CZBLZ0	FIEG US	FIEGF US		BBCC	No further information
BBCC	I	2019/06/19	2019/06/19	51426	5980078	391350	IN		2019/06/19	IN	INR	BBG00PDD8DJ4	BBG00PDD8DJ4	LTFHP3 IN	LTFHP3 IN		BBCC	No further information
BBCC	I	2019/07/04	2019/07/04	52536	5400950	283677	US	USD	2019/06/27	US	USD	BBG00JQ5JWB5	BBG00JQ5JWB5	VXXB US	VXX US		CORR	No further information
BBCC	I	2019/07/04	2019/07/04	52538	5400955	283678	US	USD	2019/06/27	US	USD	BBG00JQ5LMQ8	BBG00JQ5LMQ8	VXZB US	VXZ US		CORR	No further information
BBCC	I	2019/07/25	2019/07/25	53892	69970	250584	DE	EUR	2019/07/16	DE		BBG000BWVJJ0	BBG000BWVJJ0	EKK0 GR	EKK0 GR		CORR	No further information
BBCC	I	2019/07/30	2019/07/30	55353	54841	55986	DE	BRL	2019/07/30	DE	EUR	BBG000FX9WG3	BBG000FX9WG3	FXM GR	FXM GR		CORR	No further information
BBCC	I	2019/07/30	2019/07/30	55371	58229	138356	US		2019/07/30	US	USD	BBG000C2LQD6	BBG000C2LQD6	DAEIF US	DAEIF US		CORR	No further information
BBCC	I	2019/07/30	2019/07/30	55404	64156	55148	DE	BRL	2019/07/30	DE	EUR	BBG000BV0DG2	BBG000BV0DG2	BRE GR	BRE GR		CORR	No further information
BBCC	I	2019/07/30	2019/07/30	55405	64198	74373	ES	BRL	2019/07/30	ES	EUR	BBG000PZLM84	BBG000PZLM84	XUSI SM	XUSI SM		CORR	No further information
BBCC	I	2019/07/30	2019/07/30	55406	65194	60555	DE	BRL	2019/07/30	DE	EUR	BBG000PWWH35	BBG000PWWH35	GDUB GR	GDUB GR		CORR	No further information
BBCC	I	2019/07/30	2019/07/30	55408	65437	114851	US		2019/07/30	US	USD	BBG000BQ9367	BBG000BQ9367	SSDIF US	SSDIF US		CORR	No further information
BBCC	I	2019/07/30	2019/07/30	55454	74729	120026	US	KRW	2019/07/30	US	USD	BBG000QVS7J6	BBG000QVS7J6	LGEPF US	LGEPF US		CORR	No further information
BBCC	I	2019/07/30	2019/07/30	55471	76841	118781	US		2019/07/30	US	USD	BBG000DMJDK5	BBG000DMJDK5	BZZFF US	BZZFF US		CORR	No further information
BBCC	I	2019/07/30	2019/07/30	55544	128409	138357	US		2019/07/30	US	USD	BBG000QVFQR9	BBG000QVFQR9	DAEKF US	DAEKF US		CORR	No further information
BBCC	I	2019/07/30	2019/07/30	55561	144437	117210	US		2019/07/30	US	USD	BBG001J41NH8	BBG001J41NH8	TYOOF US	TYOOF US		CORR	No further information
BBCC	I	2019/07/30	2019/07/30	55835	510627	137783	DE		2019/07/30	DE	EUR	BBG000R0HCK2	BBG000R0HCK2	WAG GR	WAG GR		CORR	No further information
BBCC	I	2019/07/30	2019/07/30	56332	3185365	287259	DE		2019/07/30	DE	EUR	BBG00GW24429	BBG00GW24429	0CHF GR	0CHF GR		CORR	No further information
BBCC	I	2019/07/30	2019/07/30	56504	3912062	112852	PK		2019/07/30	PK	PKR	BBG003H30MN4	BBG003H30MN4	JVDCPS PA	JVDCPS PA		CORR	No further information
BBCC	I	2019/07/30	2019/07/30	56820	4024377	116543	BR		2019/07/30	BR	BRL	BBG004DW1H43	BBG004DW1H43	ALUP4 BZ	ALUP4 BZ		CORR	No further information
BBCC	I	2019/07/30	2019/07/30	56926	4070499	137419	LB		2019/07/30	LB	USD	BBG005MZN9Q3	BBG005MZN9Q3	AUPRH LB	AUPRH LB		CORR	No further information
BBCC	I	2019/07/30	2019/07/30	57229	4211316	122443	LB		2019/07/30	LB	USD	BBG0063CQX69	BBG0063CQX69	BMO13 LB	BMO13 LB		CORR	No further information
BBCC	I	2019/07/30	2019/07/30	57344	4280019	124347	SE		2019/07/30	SE	SEK	BBG006L6PX90	BBG006L6PX90	AKELPREF SS	AKELPREF SS		CORR	No further information
BBCC	I	2019/07/30	2019/07/30	57381	4295377	125076	US		2019/07/30	US	USD	BBG006Q16552	BBG006Q16552	LMLP US	LMLP US		CORR	No further information
BBCC	I	2019/07/30	2019/07/30	57627	4424683	189881	GG		2019/07/30	GG	USD	BBG004TVNWH7	BBG004TVNWH7	BARVTCO GU	BARVTCO GU		CORR	No further information
BBCC	I	2019/07/30	2019/07/30	57872	4566320	133745	RS		2019/07/30	RS	RSD	BBG0015L93P2	BBG0015L93P2	NEKSP SG	NEKSP SG		CORR	No further information
BBCC	I	2019/07/30	2019/07/30	57953	4624440	136097	US		2019/07/30	US	USD	BBG00B59KB85	BBG00B59KB85	AMUB US	AMUB US		CORR	No further information
BBCC	I	2019/07/30	2019/07/30	57958	4625325	136102	US		2019/07/30	US	USD	BBG00B59JT79	BBG00B59JT79	MRRL US	MRRL US		CORR	No further information
BBCC	I	2019/07/30	2019/07/30	58026	4652084	137194	MU	MUR	2019/07/30	MU	ZAR	BBG00BKL9H81	BBG00BKL9H81	TREV MP	TREV MP		CORR	No further information
BBCC	I	2019/07/30	2019/07/30	58220	4834144	142984	US		2019/07/30	US	USD	BBG00D6QTSB2	BBG00D6QTSB2	REML US	REML US		CORR	No further information
BBCC	I	2019/07/30	2019/07/30	58394	5012206	221995	US		2019/07/30	US	USD	BBG00FPM2N34	BBG00FPM2N34	WTID US	WTID US		CORR	No further information
BBCC	I	2019/07/30	2019/07/30	58579	5192285	245935	LB		2019/07/30	LB	USD	BBG00DR7Y847	BBG00DR7Y847	BLCPD LB	BLCPD LB		CORR	No further information
BBCC	I	2019/07/30	2019/07/30	58705	5362395	284770	TW		2019/07/30	TW	TWD	BBG00HMNKXC9	BBG00HMNKXC9	2891B TT	2891B TT		CORR	No further information
EDI_ENDOFFILE
