EDI_TRNCH_20190820
Tablename	ActFlag	Created	Changed	TrnchId	SecId	Isin	TrnchNumber	TrancheDate	TrancheAmount	ExpiryDate	Notes
TRNCH	I	2004/06/17	2004/06/17	2	158253		265	2003/03/24	100.00000	2004/03/24	
TRNCH	I	2004/09/14	2004/09/14	3	178853		1	2004/07/30	100.00000	2004/09/15	
TRNCH	I	2004/09/20	2004/09/20	4	180205		2	2004/09/06	50.00000	2004/10/16	
TRNCH	I	2004/09/22	2004/09/22	6	180676		2	2004/09/09	17.00000	2004/10/20	
TRNCH	I	2004/09/25	2004/09/25	8	181754		2	2004/08/11	250.00000	2004/09/20	
TRNCH	I	2004/09/27	2004/09/27	9	182221		2	2004/08/31	100.00000	2004/10/10	
TRNCH	U	2004/10/19	2006/11/28	10	189370		2	2004/10/05	65.00000	2004/11/15	
TRNCH	I	2004/10/20	2004/10/20	11	189931		3	2004/10/06	40.00000	2004/11/15	
TRNCH	I	2004/10/21	2004/10/21	12	190291		4	2004/08/05	25.00000	2004/09/13	
TRNCH	I	2004/11/03	2004/11/03	13	193768			2004/10/20	200.00000	2004/11/29	
TRNCH	I	2004/11/03	2004/11/03	14	193772			2004/10/20		2004/11/29	
TRNCH	I	2004/11/03	2004/11/03	15	193789		6	2004/10/15	1.70000	2004/11/24	
TRNCH	I	2004/11/03	2004/11/03	16	193799		6	2004/10/15	12.00000	2004/11/24	
TRNCH	I	2004/12/01	2004/12/01	17	203345		2	2004/11/08	50.00000	2004/12/18	
TRNCH	I	2004/12/03	2004/12/03	18	203940		3	2004/11/17	350.00000	2004/12/26	
TRNCH	I	2004/12/13	2004/12/13	19	205960		2	2004/12/02	100.00000	2005/01/11	
TRNCH	I	2005/02/10	2005/02/10	20	219481		2	2004/08/03	75.00000	2004/09/11	
TRNCH	I	2005/02/18	2005/02/18	21	221967		1	2002/12/18	2000.00000	2003/06/16	Fixed Coupon Amounts : JPY 550,000 per specified Denomination<BR><BR>Broken Amount : JPY 543,888 per specified Denomination payable on 16 June, 2003.
TRNCH	I	2005/04/23	2005/04/23	22	238779			2004/04/29	100.00000	2004/12/13	
TRNCH	I	2005/04/25	2005/04/25	23	239034		2	2004/12/10	100.00000	2005/01/18	
TRNCH	I	2005/04/25	2005/04/25	24	239040		3	2004/04/25	25000.00000	2004/12/10	
TRNCH	I	2005/04/27	2005/04/27	25	239609		2	2005/01/10	6.00000	2005/02/21	
TRNCH	I	2005/05/03	2005/05/03	27	241588		2	2005/03/08	250.00000	2005/04/17	
TRNCH	I	2005/05/04	2005/05/04	28	241693		2	2005/03/29	100.00000	2005/05/07	
TRNCH	I	2005/05/04	2005/05/04	29	241704			2005/02/28	60.00000	2005/04/09	
TRNCH	I	2005/05/05	2005/05/05	30	241861		3	2005/02/17	50.00000	2005/03/29	
TRNCH	I	2005/05/05	2005/05/05	31	241874		4	2005/03/15	18.90000	2005/04/23	
TRNCH	I	2005/05/06	2005/05/06	32	242033		3	2005/02/10	200.00000	2005/03/22	
TRNCH	I	2005/05/09	2005/05/09	33	242289		2	2005/03/03	15000.00000	2005/04/12	
TRNCH	I	2005/05/10	2005/05/10	34	242425		2	2005/02/24	50.00000	2005/04/06	
TRNCH	I	2005/05/10	2005/05/10	35	242480		2	2005/02/17	25.00000	2005/03/28	
TRNCH	I	2005/05/10	2005/05/10	36	242484		3	2005/03/07	50.00000	2005/04/15	
TRNCH	I	2005/05/11	2005/05/11	37	243542		3	2005/01/20	100.00000	2005/03/01	
TRNCH	I	2005/05/18	2005/05/18	38	245220		12	2005/03/07	4000.00000	2005/04/15	
TRNCH	I	2005/05/18	2005/05/18	39	245309		2	2005/03/04	100.00000	2005/04/12	
TRNCH	I	2005/05/23	2005/05/23	41	246081		3	2005/02/10	100.00000	2005/03/21	
TRNCH	I	2005/05/28	2005/05/28	42	247234			2005/05/25	150.00000	2006/03/17	
TRNCH	I	2005/06/03	2005/06/03	43	247967		3	2005/03/29	0.03408	2006/01/06	
TRNCH	I	2005/06/03	2005/06/03	44	247972		2	2005/02/25		2005/07/25	
TRNCH	U	2005/06/03	2005/06/04	45	247973		1	2004/02/25	16.65146	2005/04/25	
TRNCH	I	2005/06/04	2005/06/04	47	248003		2	2005/03/29	22.28214	2006/01/21	
TRNCH	I	2005/06/04	2005/06/04	48	248018		3	2005/01/06	21.67902	2005/01/25	
TRNCH	I	2005/06/04	2005/06/04	49	248020		5	2005/05/25		2005/07/25	
TRNCH	I	2005/06/08	2005/06/08	50	248731		5	2005/04/15	11.80000	2005/06/18	
TRNCH	I	2005/06/09	2005/06/09	52	249625			2005/03/04	50.00000	2006/03/04	
TRNCH	U	2005/06/10	2005/06/20	53	249653		2	2005/01/31	100.00000	2006/01/31	
TRNCH	I	2005/06/16	2005/06/16	54	253219		3	2005/03/24	50.00000	2005/07/05	
TRNCH	I	2005/06/17	2005/06/17	55	253510		3	1999/12/15	75.00000	1999/12/30	
TRNCH	I	2005/06/18	2005/06/18	56	253648		1	2000/09/29	75.00000	2000/11/09	
TRNCH	I	2005/06/20	2005/06/20	57	253748		2	2000/07/31	75.00000	2000/09/08	
TRNCH	I	2005/06/20	2005/06/20	58	254147			2005/01/13	100.00000	2005/02/21	
TRNCH	I	2005/06/22	2005/06/22	59	255548		5	2005/06/27		2006/04/25	
TRNCH	I	2005/06/25	2005/06/25	61	257843		4	2005/05/25		2006/04/24	
TRNCH	U	2005/06/25	2005/06/28	62	258225		4	2005/05/17	100.00000	2005/06/27	
TRNCH	I	2005/07/05	2005/07/05	65	262662			2005/06/28	100.00000	2005/10/06	
TRNCH	I	2005/07/06	2005/07/06	66	263211			2005/07/05	50.00000	2005/10/03	
TRNCH	I	2005/08/02	2005/08/02	67	270861			2005/08/09	12000.00000	2006/07/15	
TRNCH	I	2005/08/29	2005/08/29	68	277535		2	2005/05/18	71.00000	2005/08/17	
TRNCH	I	2005/08/29	2005/08/29	69	277541		3	2005/08/17	71.00000	2005/11/16	
TRNCH	I	2005/08/29	2005/08/29	70	277543		4	2005/11/16	71.00000	2006/02/15	
TRNCH	I	2005/08/29	2005/08/29	71	277545		5	2006/02/15	71.00000	2006/05/15	
TRNCH	I	2005/08/29	2005/08/29	72	277546		6	2006/05/17	71.00000	2006/08/16	
TRNCH	I	2005/08/29	2005/08/29	73	277550		7	2005/08/16	71.00000	2006/11/15	
TRNCH	I	2005/08/29	2005/08/29	74	277551		8	2006/11/15	71.00000	2007/02/14	
TRNCH	I	2005/08/29	2005/08/29	75	277554		9	2007/02/14	71.00000	2007/05/16	
TRNCH	I	2005/08/29	2005/08/29	76	277556		10	2007/05/16	71.00000	2007/08/15	
TRNCH	I	2005/08/29	2005/08/29	77	277558		11	2007/08/15	71.00000	2007/11/14	
TRNCH	I	2005/08/29	2005/08/29	78	277576		2	2005/05/18	5.00000	2005/08/17	
TRNCH	I	2005/08/29	2005/08/29	79	277578		3	2005/08/17	5.00000	2005/11/16	
TRNCH	I	2005/08/29	2005/08/29	80	277581		4	2005/11/16	5.00000	2006/02/15	
TRNCH	I	2005/08/29	2005/08/29	81	277584		5	2006/02/15	5.00000	2006/05/17	
TRNCH	I	2005/08/29	2005/08/29	82	277587		6	2006/05/17	5.00000	2006/08/16	
TRNCH	I	2005/08/30	2005/08/30	83	277647		12	2007/11/14	71.00000	2008/02/13	
TRNCH	I	2005/08/30	2005/08/30	84	277648		7	2005/08/16	5.00000	2006/11/15	
TRNCH	I	2005/08/30	2005/08/30	85	277649		8	2006/11/15	5.00000	2007/02/14	
TRNCH	I	2005/08/30	2005/08/30	86	277650		9	2007/02/14	5.00000	2007/05/16	
TRNCH	I	2005/08/30	2005/08/30	87	277651		10	2007/05/16	5.00000	2007/08/15	
TRNCH	I	2005/08/30	2005/08/30	88	277652		11	2007/08/15	5.00000	2007/11/14	
TRNCH	I	2005/08/30	2005/08/30	89	277653		12	2007/11/14	5.00000	2008/02/13	
TRNCH	I	2005/09/16	2005/09/16	90	284894			2001/04/23	75.00000	2001/06/01	
TRNCH	I	2005/09/21	2005/09/21	91	286177		2	2005/02/08	2.00000	2005/03/19	
TRNCH	I	2005/09/24	2005/09/24	92	286950		2	2001/06/05	500.00000	2001/07/16	
TRNCH	I	2005/11/24	2005/11/24	93	305512		10	2005/11/25		2006/04/25	
TRNCH	I	2005/11/24	2005/11/24	94	305520		4	2005/11/25		2006/07/25	
TRNCH	I	2006/08/21	2006/08/21	95	402178		2	2006/01/17	1.00000	2006/02/20	
TRNCH	I	2006/08/21	2006/08/21	96	402187		2	2006/01/23	30.00000	2006/03/04	
TRNCH	I	2006/12/22	2006/12/22	97	458837		2	2006/10/30	1000000.00000	2007/08/17	
TRNCH	I	2013/01/24	2013/01/24	107	3969842		2	2013/01/24	250.00000	2013/11/11	
TRNCH	I	2013/01/24	2013/01/24	111	3969911		2	2013/01/25	2.99000	2013/01/25	
TRNCH	I	2013/01/24	2013/01/24	112	3969966		3	2013/01/23	1820.00000	2013/05/16	
TRNCH	I	2013/01/28	2013/01/28	152	3971687		2	2013/01/30	30.00000	2013/12/15	
TRNCH	I	2013/01/29	2013/01/29	162	3972450		3	2013/01/24	50.00000	2013/03/05	
TRNCH	I	2013/02/11	2013/02/11	242	3980452		2	2013/02/08	75.00000	2013/05/01	Trading<BR>Trading group: L2 Trading: Continuous<BR>Quotity: 100.000 Currency: EUR<BR>Unit / %: Percentage Settlement Platform: Euroclear Nederland<BR>Guaranteed: Yes UNT/FMT: FMT<BR>Liquidity provider(s):<BR>Designation: RB TR2 FRN%01FEB16 CFI code: DTVXFD<BR>ISIN: XS0887584042 Euronext code: XS0887584042<BR>Symbol:<BR><BR>Increase. Later fungible with XS0880215685. Issue price 99.957 with 7 days accrued interest days included.
TRNCH	I	2013/02/15	2013/02/15	244	3983099		2	2013/03/06	155.00000	2013/12/27	
TRNCH	I	2013/02/16	2013/02/16	247	3983969		2	2013/02/14	100.00000	2013/04/18	
TRNCH	I	2013/02/19	2013/02/19	263	3984496		2	2013/02/14	100.00000	2013/03/26	
TRNCH	I	2013/03/01	2013/03/01	360	3991352		2	2013/03/06	150.00000	2013/05/27	
TRNCH	I	2013/03/01	2013/03/01	361	3991355		10	2013/03/07	300.00000	2013/04/05	
TRNCH	I	2013/03/01	2013/03/01	363	3991609		2	2013/03/05	50.00000	2013/04/29	
TRNCH	I	2013/03/02	2013/03/02	365	3991700		2	2013/02/15	45.00000	2014/01/28	
TRNCH	I	2013/03/02	2013/03/02	366	3991702		3	2013/02/28	15.00000	2014/01/28	
TRNCH	I	2013/03/05	2013/03/05	385	3993485		3	2013/03/11	200.00000	2013/04/29	
TRNCH	I	2013/03/05	2013/03/05	386	3993575		3	2013/03/04	200.00000	2013/12/18	
TRNCH	I	2013/03/05	2013/03/05	388	3993595		2	2013/03/04	325.00000	2013/04/18	
TRNCH	I	2013/03/07	2013/03/07	393	3995151		2	2013/03/05	55.00000	2013/04/16	
TRNCH	I	2013/03/08	2013/03/08	406	3996358		2	2013/03/06	325.00000	2013/10/01	
TRNCH	I	2013/03/12	2013/03/12	415	3998623		2	2013/03/08	4.00000	2013/06/12	
TRNCH	I	2013/03/13	2013/03/13	416	3999115		2	2013/03/11	90.00000	2013/04/23	
TRNCH	I	2013/03/13	2013/03/13	419	3999409		2	2013/02/21	200.00000	2013/05/06	
TRNCH	I	2013/03/14	2013/03/14	421	3999813		3	2013/03/12	50.00000	2013/04/23	
TRNCH	I	2013/03/14	2013/03/14	423	4000058		2	2013/03/06	150.00000	2013/05/26	
TRNCH	I	2013/03/14	2013/03/14	424	4000629		3	2013/03/13	100.00000	2013/05/01	
TRNCH	I	2013/03/16	2013/03/16	437	4001752		3	2013/03/07	50.00000	2013/04/18	
TRNCH	I	2013/03/16	2013/03/16	438	4001807		3	2013/03/13	100.00000	2013/04/18	
TRNCH	I	2013/03/18	2013/03/18	452	4002557		2	2013/03/05	50.00000	2013/04/29	
TRNCH	I	2013/03/21	2013/03/21	457	4004822		2	2013/03/06	150.00000	2013/05/26	
TRNCH	I	2013/03/27	2013/03/27	490	4008694		4	2013/03/26	100.00000	2013/04/18	
TRNCH	I	2013/04/02	2013/04/02	511	4010999		4	2013/03/22	250.00000	2013/04/29	
TRNCH	I	2013/04/04	2013/04/04	526	4012524		2	2013/04/02	150.00000	2013/05/14	
TRNCH	I	2013/04/04	2013/04/04	527	4012665		4	2013/04/03	25.00000	2013/06/10	Assimilation of Medium Term Notes<BR>From 10/06/2013 the 250 Medium Term Notes (ISIN code XS0911027737) will be assimilated on<BR>EURONEXT AMSTERDAM to the Medium Term Notes (ISIN code XS0880215685) issued by RABOBANK<BR>NEDERLAND.<BR>RB TR4 FRN 1FEB13-16<BR>Product name: RB TR4 FRN%01FEB16<BR>ISIN: XS0911027737 Euronext code: XS0911027737<BR>Symbol: National code:<BR><BR>
TRNCH	I	2013/04/05	2013/04/05	537	4013479		2	2013/03/01	50.00000	2014/01/25	
TRNCH	I	2013/04/05	2013/04/05	538	4013484		3	2013/04/03	125.00000	2014/01/25	
TRNCH	I	2013/04/10	2013/04/10	577	4016278		2	2013/04/29	100.00000	2014/02/11	
TRNCH	I	2013/04/15	2013/04/15	589	4017921		2	2013/04/09	200.00000	2013/05/19	
TRNCH	I	2013/04/16	2013/04/16	610	4018662		3	2013/04/12	50.00000	2013/12/10	
TRNCH	I	2013/04/16	2013/04/16	611	4018680		2	2013/03/15	1.10000	2013/04/25	
TRNCH	I	2013/04/30	2013/04/30	680	4028365		2	2013/05/07	350.00000	2013/06/16	
TRNCH	I	2013/04/30	2013/04/30	681	4028369		2	2013/05/07	250.00000	2013/06/16	
TRNCH	I	2013/05/01	2013/05/01	688	4029029		2	2013/03/27	150.00000	2013/05/07	
TRNCH	I	2013/05/15	2013/05/15	792	4037238		44	2013/05/13	245.00000	2013/05/19	
TRNCH	I	2013/05/15	2013/05/15	794	4037313		2	2013/05/21	150.00000	2013/06/30	
TRNCH	I	2013/05/15	2013/05/15	795	4037973		2	2013/05/14	200.00000	2013/08/31	
TRNCH	I	2013/05/16	2013/05/16	805	4038804		2	2013/05/10	266.00000	2013/07/27	
TRNCH	I	2013/05/16	2013/05/16	806	4038844		2	2013/05/21	150.00000	2014/02/21	
TRNCH	I	2013/05/21	2013/05/21	818	4041450		4	2013/05/21	100.00000	2013/06/30	
TRNCH	I	2013/05/23	2013/05/23	820	4043801		2	2013/04/11	250.00000	2013/05/21	
TRNCH	I	2013/05/25	2013/05/25	825	4045427		2	2013/05/31	250.00000	2014/01/30	
TRNCH	I	2013/05/25	2013/05/25	827	4045690		3	2013/05/22	50.00000	2013/09/15	
TRNCH	I	2013/05/27	2013/05/27	831	4046038		13	2013/05/27	100.00000	2013/07/06	
TRNCH	I	2013/05/30	2013/05/30	842	4048406		2	2013/05/24	150.00000	2013/08/15	
TRNCH	I	2013/06/04	2013/06/04	868	4050558		2	2013/05/28	100.00000	2013/07/09	
TRNCH	I	2013/06/13	2013/06/13	917	4055912		3	2013/05/29	250.00000	2013/08/15	
TRNCH	I	2013/06/13	2013/06/13	918	4055931		4	2013/06/07	150.00000	2013/08/15	
TRNCH	I	2013/06/19	2013/06/19	932	4060670		2	2013/06/14	0.60000	2014/05/28	
TRNCH	I	2013/06/28	2013/06/28	970	4065419		2	2013/06/24	75.00000	2013/12/15	
TRNCH	I	2013/07/01	2013/07/01	985	4066957		2	2013/07/03	250.00000	2013/10/09	
TRNCH	I	2013/07/06	2013/07/06	1001	4070667		2	2013/07/12	1350.00000	2013/08/21	
TRNCH	I	2013/07/09	2013/07/09	1017	4071685		3	2013/03/27	15.00000	2014/03/08	
TRNCH	I	2013/07/11	2013/07/11	1023	4073595		2	2013/07/11	120.00000	2013/09/04	
TRNCH	I	2013/07/13	2013/07/13	1033	4074453		3	2013/07/09	325.00000	2013/09/30	
TRNCH	I	2013/07/13	2013/07/13	1036	4074905		3	2013/07/12	50.00000	2013/10/09	
TRNCH	I	2013/07/17	2013/07/17	1049	4076987		2	2013/07/23	200.00000	2014/05/28	
TRNCH	I	2013/07/20	2013/07/20	1054	4079858		4	2013/07/25	150.00000	2013/10/09	
TRNCH	I	2013/07/23	2013/07/23	1060	4081137		2	2013/07/22	100.00000	2013/08/31	
TRNCH	I	2013/07/24	2013/07/24	1065	4081810		4	2013/07/30	40.75000	2013/12/31	
TRNCH	I	2013/07/29	2013/07/29	1080	4084157		3	2013/07/29	15.00000	2013/09/19	
TRNCH	I	2013/08/02	2013/08/02	1100	4086418		12	2013/08/06	40.00000	2013/09/16	
TRNCH	I	2013/08/13	2013/08/13	1118	4090970		3	2013/07/12	50.00000	2013/08/22	
TRNCH	I	2013/08/13	2013/08/13	1119	4090973		4	2013/07/25	150.00000	2013/10/09	
TRNCH	I	2013/08/15	2013/08/15	1127	4092651		5	2013/08/19	300.00000	2013/10/09	
TRNCH	I	2013/08/17	2013/08/17	1132	4093896		3	2013/07/12	5.00000	2013/10/01	
TRNCH	I	2013/08/17	2013/08/17	1133	4093904		4	2013/07/25	150.00000	2013/10/09	
TRNCH	I	2013/08/24	2013/08/24	1150	4097611		5	2013/08/20	600.00000	2013/10/01	
TRNCH	I	2013/08/28	2013/08/28	1162	4099106		6	2013/08/20	250.00000	2013/10/01	
TRNCH	I	2013/08/31	2013/08/31	1187	4101152		2	2013/09/09	150.00000	2013/12/06	
TRNCH	I	2013/08/31	2013/08/31	1189	4101204		2	2013/06/05	150.00000	2014/01/14	
TRNCH	I	2013/08/31	2013/08/31	1190	4101221		2	2013/06/05	150.00000	2014/01/14	
TRNCH	I	2013/09/02	2013/09/02	1192	4101328		2	2013/08/30	25.00000	2013/10/09	
TRNCH	I	2013/09/02	2013/09/02	1193	4101340		2	2013/08/29	25.00000	2013/10/17	
TRNCH	I	2013/09/03	2013/09/03	1198	4101669		2	2013/09/09	250.00000	2013/10/21	
TRNCH	I	2013/09/03	2013/09/03	1199	4101672		2	2013/09/09	500.00000	2013/10/21	
TRNCH	I	2013/09/05	2013/09/05	1208	4103137		2	2013/09/04	97.50000	2013/10/14	
TRNCH	I	2013/09/10	2013/09/10	1212	4105184		2	2013/09/10	150.00000	2013/10/20	
TRNCH	I	2013/09/10	2013/09/10	1214	4105324		3	2013/09/10	150.00000	2013/10/20	
TRNCH	I	2013/09/11	2013/09/11	1216	4106328		5	2013/09/17	200.00000	2013/10/04	
TRNCH	I	2013/09/13	2013/09/13	1223	4107526		3	2013/09/12	150.00000	2013/09/29	
TRNCH	I	2013/09/18	2013/09/18	1237	4111030		2	2013/09/24	250.00000	2013/10/31	
TRNCH	I	2013/09/19	2013/09/19	1245	4111566		3	2013/09/12	150.00000	2013/09/29	
TRNCH	I	2013/09/23	2013/09/23	1254	4113442		3	2013/09/19	250.00000	2013/10/29	
TRNCH	I	2013/09/23	2013/09/23	1255	4113460		4	2013/09/18	50.00000	2013/10/29	
TRNCH	I	2013/09/24	2013/09/24	1263	4113861		2	2013/08/27	175.00000	2013/10/08	
TRNCH	I	2013/09/24	2013/09/24	1266	4113889		5	2013/09/03	100.00000	2013/10/13	
TRNCH	I	2013/09/26	2013/09/26	1281	4115630		2	2013/10/01	250.00000	2013/12/27	
TRNCH	I	2013/09/27	2013/09/27	1282	4116835		3	2013/09/25	25.00000	2013/11/04	
TRNCH	I	2013/09/28	2013/09/28	1288	4117268		2	2013/08/29	25.00000	2013/10/17	
TRNCH	I	2013/10/01	2013/10/01	1306	4118628		5	2013/09/30	150.00000	2013/10/29	
TRNCH	I	2013/10/02	2013/10/02	1308	4118978		2	2013/09/05	0.60000	2013/10/16	
TRNCH	I	2013/10/14	2013/10/14	1363	4125225		2	2013/03/18	25.00000	2014/02/27	
TRNCH	I	2013/10/21	2013/10/21	1378	4129443		2	2013/10/18	100.00000	2013/12/12	
TRNCH	I	2013/10/22	2013/10/22	1380	4129983		3	2013/10/21	50.00000	2013/11/30	
TRNCH	I	2013/10/22	2013/10/22	1381	4129994		4	2013/10/21	16.00000	2013/11/30	Temporary ISIN - XS0984042449
TRNCH	I	2013/10/25	2013/10/25	1388	4132138		2	2013/10/31	150.00000	2014/04/26	
TRNCH	I	2013/10/28	2013/10/28	1397	4133285		6	2013/10/21	100.00000	2013/11/30	
TRNCH	I	2013/10/28	2013/10/28	1400	4133485		2	2013/10/24	700.00000	2014/01/15	
TRNCH	I	2013/10/29	2013/10/29	1402	4133705		2	2013/10/28	100.00000	2013/12/07	
TRNCH	I	2013/11/01	2013/11/01	1406	4135426		2	2013/11/06	50.00000	2013/12/16	
TRNCH	I	2013/11/01	2013/11/01	1407	4135438		3	2013/11/06	150.00000	2013/12/10	
TRNCH	I	2013/11/04	2013/11/04	1409	4135887		2	2013/10/23	100.00000	2014/12/15	
TRNCH	I	2013/11/07	2013/11/07	1424	4138160		2	2013/11/11	250.00000	2014/04/15	
TRNCH	I	2013/11/14	2013/11/14	1446	4141937		3	2013/11/12	75.00000	2013/12/22	
TRNCH	I	2013/11/15	2013/11/15	1457	4142633		2	2013/01/16	35.00000	2013/12/19	
TRNCH	I	2013/11/15	2013/11/15	1462	4143240		2	2013/11/21	250.00000	2013/12/31	
TRNCH	I	2013/11/16	2013/11/16	1466	4143487		2	2013/11/15	50.00000	2013/12/25	
TRNCH	I	2013/11/16	2013/11/16	1469	4143536		7	2013/11/15	2000.00000	2014/02/21	METHOD OF DISTRIBUTION: Private Placement
TRNCH	I	2013/11/18	2013/11/18	1478	4144171		2	2013/10/08	1.82000	2013/11/19	
TRNCH	I	2013/11/25	2013/11/25	1544	4148776		3	2013/11/21	100.00000	2013/12/31	
TRNCH	I	2013/11/26	2013/11/26	1546	4149352		2	2013/10/04	100.00000	2013/12/28	
TRNCH	I	2013/11/30	2013/11/30	1561	4152494		4	2013/11/26	100.00000	2014/01/06	
TRNCH	I	2013/12/06	2013/12/06	1586	4155534		2	2013/09/19	10.00000	2014/09/02	
TRNCH	I	2013/12/07	2013/12/07	1589	4156192		2	2013/11/25	60.00000	2014/01/06	
TRNCH	I	2013/12/12	2013/12/12	1606	4158475		9	2013/12/02	85.00000	2014/04/25	
TRNCH	I	2013/12/14	2013/12/14	1623	4160242		4	2013/08/05	90.00000	2013/12/17	
TRNCH	I	2013/12/16	2013/12/16	1629	4160513		2	2013/11/29	200.00000	2014/01/16	
TRNCH	I	2014/01/04	2014/01/04	1680	4170336		3	2013/12/09	55.00000	2014/01/18	
TRNCH	I	2014/01/14	2014/01/14	1692	4179230		2	2014/01/20	200.00000	2014/03/01	
TRNCH	I	2014/01/23	2014/01/23	1718	4186004		2	2014/02/14	50.00000	2014/11/07	
TRNCH	I	2014/01/29	2014/01/29	1730	4189487		2	2014/02/14	250.00000	2014/11/23	
TRNCH	I	2014/01/29	2014/01/29	1731	4189585		2	2014/02/04	500.00000	2014/03/16	
TRNCH	I	2014/02/04	2014/02/04	1761	4193033		2	2014/01/21	100.00000	2014/12/15	
TRNCH	I	2014/02/04	2014/02/04	1763	4193223		8	2014/01/24	300.00000	2014/09/07	
TRNCH	I	2014/02/08	2014/02/08	1783	4196404		2	2014/02/13	100.00000	2014/12/07	
TRNCH	I	2014/02/11	2014/02/11	1787	4197927		4	2014/02/04	100.00000	2014/03/10	
TRNCH	I	2014/02/20	2014/02/20	1807	4204990		2	2014/02/03	238.00000	2015/01/16	
TRNCH	I	2014/02/20	2014/02/20	1811	4205067		2	2014/03/03	238.00000	2015/01/16	
TRNCH	I	2014/02/21	2014/02/21	1812	4205582		2	2014/02/18	300.00000	2015/01/17	
TRNCH	I	2014/03/05	2014/03/05	1833	4213887		9	2014/02/25	200.00000	2014/09/07	Underwriter - HSBC Bank Plc
TRNCH	I	2014/03/12	2014/03/12	1859	4219176		2	2014/03/05	50.00000	2014/07/22	
TRNCH	I	2014/03/19	2014/03/19	1867	4224836		4	2014/03/21	250.00000	2014/12/01	
TRNCH	I	2014/03/20	2014/03/20	1869	4225337		2	2014/02/11	0.20000	2014/03/25	
TRNCH	I	2014/04/04	2014/04/04	1891	4238904		2	2014/03/26	292.80000	2014/07/25	
TRNCH	I	2014/04/08	2014/04/08	1898	4241930		2	2014/04/23	111.69400	2015/02/27	
TRNCH	I	2014/04/09	2014/04/09	1903	4243137		2	2014/05/16	75.00000	2015/04/02	
TRNCH	I	2014/04/15	2014/04/15	1913	4247299		2	2014/04/15	300.00000	2015/01/30	
TRNCH	I	2014/04/16	2014/04/16	1915	4247882		2	2014/04/16	250.00000	2015/01/17	
TRNCH	I	2014/04/26	2014/04/26	1933	4255141		4	2014/05/02	500.00000	2014/06/11	
TRNCH	I	2014/04/28	2014/04/28	1934	4255528		4	2014/05/02	500.00000	2014/06/10	
TRNCH	I	2014/05/01	2014/05/01	1939	4258521		2	2014/05/07	100.00000	2014/06/12	
TRNCH	I	2014/05/14	2014/05/14	1993	4266527		2	2013/10/02	250.00000	2014/09/02	
TRNCH	I	2014/05/17	2014/05/17	2003	4269444		2	2014/05/22	100.00000	2014/12/07	
TRNCH	I	2014/05/19	2014/05/19	2005	4269937		5	2014/05/05	55.00000	2014/06/13	
TRNCH	I	2014/05/19	2014/05/19	2008	4270357		2	2014/05/12	110.00000	2014/06/21	
TRNCH	I	2014/05/28	2014/05/28	2028	4276518		2	2014/05/26	75.00000	2014/07/08	
TRNCH	I	2014/05/28	2014/05/28	2029	4276546		3	2014/05/26	100.00000	2014/07/08	
TRNCH	I	2014/05/28	2014/05/28	2030	4276559		4	2014/05/26	250.00000	2014/07/08	
TRNCH	I	2014/06/05	2014/06/05	2046	4281824		2	2014/04/30	1.70000	2014/06/10	
TRNCH	I	2014/06/07	2014/06/07	2050	4283849		3	2014/05/07	150.00000	2014/06/17	
TRNCH	I	2014/07/11	2014/07/11	2093	4306524		1	2014/06/02	123.83000	2014/10/15	
TRNCH	I	2014/07/11	2014/07/11	2094	4306547		1	2014/06/02	21.17000	2014/10/15	
TRNCH	I	2014/08/29	2014/08/29	2188	4335988		2	2014/09/02	300.00000	2014/10/12	
TRNCH	I	2014/09/22	2014/09/22	2290	4351691		3	2014/09/10	100.00000	2014/12/03	
TRNCH	I	2014/10/02	2014/10/02	2326	4357331		3	2014/03/31	150.00000	2014/12/06	
TRNCH	I	2014/10/03	2014/10/03	2331	4358186		5	2014/09/30	50.00000	2014/12/15	
TRNCH	I	2014/10/03	2014/10/03	2340	4358880		5	2014/09/08	50.00000	2014/12/07	
TRNCH	I	2014/10/14	2014/10/14	2362	4365185		2	2014/10/08	2000.00000	2015/09/05	
TRNCH	I	2014/10/24	2014/10/24	2374	4371837		3	2014/10/22	1250.00000	2015/09/05	
TRNCH	I	2014/10/30	2014/10/30	2392	4375374		1	2014/10/30	150.00000	2014/12/09	
TRNCH	I	2014/10/31	2014/10/31	2395	4376290		2	2014/10/28	250.00000	2015/01/20	
TRNCH	I	2014/12/02	2014/12/02	2521	4397474		2	2014/11/26	145.00000	2015/02/27	
TRNCH	I	2014/12/08	2014/12/08	2541	4401471		16	2014/12/01	70.00000	2015/01/10	
TRNCH	I	2014/12/13	2014/12/15	2553	4406113		2	2014/12/11	500.00000	2015/06/17	
TRNCH	I	2014/12/19	2014/12/19	2558	4410016		2	2014/12/15	100.00000	2015/03/09	
TRNCH	I	2014/12/23	2014/12/23	2564	4412496		1	2014/12/24	200.60000	2015/02/02	
TRNCH	I	2015/01/07	2015/01/07	2598	4420060		1	2015/01/13	300.00000	2015/02/22	
TRNCH	I	2015/01/08	2015/01/08	2603	4421517		7	2015/01/12	100.00000	2015/02/21	
TRNCH	I	2015/01/17	2015/01/19	2629	4428013		1	2015/01/19	500.00000	2015/02/28	
TRNCH	I	2015/01/17	2015/01/19	2633	4428149		2	2014/12/24	1.00000	2015/03/09	
TRNCH	I	2015/01/19	2015/01/19	2646	4428316		2	2014/12/08	0.10000	2015/01/20	
TRNCH	I	2015/01/23	2015/01/23	2671	4431507		9	2015/01/20	50.00000	2015/03/01	
TRNCH	I	2015/01/28	2015/01/28	2684	4434338		2	2015/01/28	100.00000	2015/03/09	
TRNCH	I	2015/01/31	2015/02/02	2699	4436968		4	2015/01/30	1750.00000	2015/09/05	
TRNCH	I	2015/02/04	2015/02/04	2708	4439663		7	2015/02/09	50.00000	2015/03/21	
TRNCH	I	2015/02/06	2015/02/06	2711	4441221		4	2015/02/09	150.00000	2015/03/21	
TRNCH	I	2015/02/10	2015/02/10	2716	4443475		2	2015/02/10	50.00000	2015/03/22	
TRNCH	I	2015/02/13	2015/02/13	2725	4445845		2	2015/02/09	208.10000	2015/04/01	
TRNCH	I	2015/02/13	2015/02/13	2730	4446314		2	2015/02/12	100.00000	2015/05/04	
TRNCH	I	2015/02/13	2015/02/13	2731	4446332		2	2015/02/19	300.00000	2015/03/31	As on 12/02/2015<BR>------------------------<BR>First trading    Valor                   Title                            Issuer                    Emission  currency  Outstanding amt    Denomination   Decay <BR>19/02/2015     27`128`851    00:50 PB T3 13-18 / Z Pfandbrief Bank          CHF                      300,000,000           5,000             19/01/2018
TRNCH	I	2015/02/13	2015/02/13	2732	4446334		2	2015/02/19	150.00000	2015/03/31	
TRNCH	I	2015/02/21	2015/02/23	2798	4449908		7	2015/02/14	50.00000	2015/03/31	
TRNCH	I	2015/02/25	2015/02/25	2810	4452164		8	2015/03/02	50.00000	2015/04/11	Temporary ISIN: XS1184946793
TRNCH	I	2015/02/26	2015/02/26	2818	4452995		19	2015/02/25	9.60000	2015/03/23	
TRNCH	I	2015/02/26	2015/02/26	2820	4453010		38	2015/02/25	38.40000	2016/02/25	
TRNCH	I	2015/02/26	2015/02/26	2824	4453427		38	2015/02/25	38.40000	2015/03/25	
TRNCH	I	2015/03/10	2015/03/10	2867	4462771		3	2015/03/11	300.00000	2015/04/20	
TRNCH	I	2015/03/19	2015/03/19	2888	4469863		2	2015/03/19	50.00000	2015/06/11	
TRNCH	I	2015/03/19	2015/03/19	2889	4469869		3	2015/03/19	150.00000	2015/06/11	
TRNCH	I	2015/03/19	2015/03/19	2891	4469877		5	2015/03/19	50.00000	2015/06/11	
TRNCH	I	2015/03/20	2015/03/20	2894	4470303		5	2015/03/13	100.00000	2015/05/04	Name and address of relevant Dealer:<BR>Barclays Bank PLC.
TRNCH	I	2015/03/26	2015/03/26	2907	4473962		6	2015/03/31	1300.00000	2015/06/10	
TRNCH	I	2015/03/28	2015/03/30	2914	4475439		2	2015/03/30	250.00000	2015/05/09	
TRNCH	I	2015/04/01	2015/04/01	2949	4478440		2	2015/04/09	200.00000	2015/06/15	
TRNCH	I	2015/04/02	2015/04/02	2955	4479503		2	2015/04/20	110.00000	2016/03/30	
TRNCH	I	2015/04/08	2015/04/08	2970	4483418		2	2015/03/27	50.00000	2015/05/07	
TRNCH	I	2015/04/13	2015/04/13	2991	4487295		2	2015/03/05	200.00000	2015/12/13	
TRNCH	I	2015/04/27	2015/04/27	3023	4497985		6	2015/03/31	1300.00000	2015/05/11	
TRNCH	I	2015/06/24	2015/06/24	3129	4540460		5	2015/06/26	150.00000	2015/10/02	
TRNCH	I	2015/06/26	2015/06/26	3133	4542517		2	2015/05/27	55.00000	2015/10/06	
TRNCH	I	2015/07/04	2015/07/06	3148	4548954		2	2015/06/19	1880.00000	2015/11/07	
TRNCH	I	2015/07/14	2015/07/14	3159	4556302		2	2015/07/15	50.00000	2015/08/24	
TRNCH	I	2015/08/07	2015/08/07	3219	4577368		5	2015/08/13	250.00000	2015/09/22	
TRNCH	I	2015/08/24	2015/08/24	3236	4591095		2	2015/08/21	300.00000	2016/06/24	
TRNCH	I	2015/09/08	2015/09/08	3299	4601697		2	2015/08/27	200.00000	2015/10/07	
TRNCH	I	2015/10/02	2015/10/02	3372	4618105		4	2015/09/24	25.00000	2016/02/25	
TRNCH	I	2015/10/14	2015/10/14	3416	4624579		6	2015/10/08	167.50000	2015/11/18	
TRNCH	I	2015/11/02	2015/11/02	3450	4637081		2	2015/10/26	40.00000	2015/12/06	
TRNCH	I	2015/11/20	2015/11/20	3477	4649115		2	2015/11/05	330.00000	2016/08/20	
TRNCH	I	2015/12/08	2015/12/08	3502	4661073		2	2015/12/08	750.00000	2016/06/04	
TRNCH	I	2015/12/19	2015/12/21	3537	4669279		2	2015/12/03	50.00000	2016/02/14	
TRNCH	I	2016/01/13	2016/01/13	3605	4684348		2	2015/03/26	50.00000	2015/06/01	
TRNCH	I	2016/01/26	2016/01/26	3656	4693857		2	2016/01/25	34.80000	2016/02/25	
TRNCH	I	2016/01/26	2016/01/26	3659	4693872		2	2016/01/25	39.70000	2016/02/25	
TRNCH	I	2016/01/26	2016/01/26	3660	4693873		2	2016/01/25	6.10000	2016/02/25	
TRNCH	I	2016/02/03	2016/02/03	3684	4699679		2	2016/02/02	100.00000	2016/12/19	
TRNCH	I	2016/02/11	2016/02/11	3719	4704149		3	2016/02/08	100.00000	2016/04/26	
TRNCH	I	2016/02/16	2016/02/16	3736	4705932		3	2016/02/15	100.00000	2016/12/07	
TRNCH	I	2016/02/16	2016/02/17	3744	4706259		2	2015/12/22	175.53300	2016/03/01	
TRNCH	I	2016/02/16	2016/02/17	3745	4706270		2	2015/12/22	175.53300	2016/03/01	
TRNCH	U	2016/02/25	2016/02/25	3756	4713080		3	2016/02/25	100.00000	2016/04/14	
TRNCH	I	2016/02/27	2016/02/29	3764	4714975		2	2016/02/24	250.00000	2016/11/21	
TRNCH	I	2016/03/04	2016/03/04	3793	4718666		2	2016/01/27	2.15000	2016/05/17	
TRNCH	I	2016/03/08	2016/03/08	3814	4721097		2	2016/02/25	2000.00000	2016/06/06	
TRNCH	I	2016/03/10	2016/03/10	3820	4723482		2	2016/03/11	50.00000	2016/04/20	
TRNCH	I	2016/03/16	2016/03/16	3836	4728591		4	2016/03/17	115.00000	2016/05/26	
TRNCH	I	2016/03/17	2016/03/17	3842	4729930		4	2016/03/15	20.00000	2016/04/26	
TRNCH	I	2016/03/18	2016/03/18	3845	4731116		4	2016/03/07	65.00000	2016/04/19	
TRNCH	I	2016/06/14	2016/06/14	4043	4802701		3	2016/05/27	75.00000	2016/07/07	
TRNCH	I	2016/07/28	2016/07/28	4096	4847175		2	2016/07/27	50.00000	2016/12/15	
TRNCH	I	2016/07/29	2016/07/29	4098	4848840		3	2016/07/21	100.00000	2017/04/25	
TRNCH	I	2016/09/27	2016/09/27	4192	4916440		2	2016/09/28	250.00000	2017/05/25	
TRNCH	I	2016/11/15	2016/11/15	4266	4962255		1	2016/10/17	500.00000	2016/11/29	Total Issue Amount: NOK 500,000,000<BR>Tranche A: NOK 250,000,000  Issue Price: 100.800<BR>Tranche B: NOK 250,000,000  Issue Price: 100.857
TRNCH	I	2016/12/05	2016/12/05	4294	4981685		3	2016/01/21	5.00000	2016/08/08	
TRNCH	I	2016/12/05	2016/12/05	4295	4981833		3	2016/01/21	5.00000	2016/08/08	
TRNCH	I	2017/02/04	2017/02/06	4430	5038330		2	2017/01/18	250.00000	2017/08/26	
TRNCH	I	2017/03/24	2017/03/24	4621	5091943		3	2017/03/23	500.00000	2018/01/18	
TRNCH	I	2017/05/18	2017/05/18	4832	5145232		19	2016/12/28	21.80000	2017/01/25	
TRNCH	I	2017/05/31	2017/05/31	4885	5157462		2	2017/05/31	300.00000	2018/02/02	( As on 30/05/2017)<BR><BR>Admission of bonds :<BR><BR>As of 31/05/2017 the bonds issued by SNCF MOBILITES, will be listed on EURONEXT PARIS.<BR>This issuance will be assimilated to bonds already issued by SNCF MOBILITES (ISIN code XS1558472129)<BR><BR><BR>Number of listed bonds : 3.000<BR>Par-value : 100.000 EUR<BR>total amount: 300.000.000 EUR<BR>Issue price : 102,633%<BR>Interest accrued date : 02/02/2017<BR>Settlement date : 31/05/2017<BR>Interest rate : 1,5%<BR>next coupon : 02/02/2018<BR>coupon frequency: Annually<BR>Counting of days : ACT/ACT (ICMA)<BR>Redemption : At maturity<BR>maturity Date : 02/02/2029<BR>Early redemption : Not applicable<BR>Issuance under-programme : yes<BR>currency : EUR<BR>ISIN : XS1622414438 <BR>symbol : SNCD<BR>
TRNCH	I	2017/06/07	2017/06/07	4897	5165753		2	2017/05/18	500.00000	2017/06/26	
TRNCH	I	2017/05/31	2017/05/31	4886	5157491		2	2017/05/31	100.00000	2018/03/23	( As on 30/05/2017)<BR><BR>Admission of bonds : <BR><BR>As of 31/05/2017 the Euro medium term notes issued by PEUGEOT S.A., will be listed on EURONEXT PARIS.<BR><BR>This issuance will be assimilated to bonds already issued by PEUGEAOT S.A ( code ISIN FR0013245586 .<BR><BR><BR>Number of listed bonds : 100.000<BR>Par-value : 1.000 EUR<BR>Total amount : 100.000.000 EUR<BR>Issue price : 101,109%<BR>Interest accrued date : 23/03/2017<BR>Settlement date : 31/05/2017<BR>Interest rate : 2%<BR>next coupon : 23/03/2018<BR>Coupon frequency : Annually<BR>Counting of days : ACT/ACT (ICMA)<BR>Redemption : At maturity<BR>Maturity date : 23/03/2024<BR>Early redemption : Applicable (Issuer decision)<BR>Issuance under-programme : yes<BR>currency : EUR<BR>ISIN : FR0013259033 <BR>symbol : UGAJ<BR><BR>
TRNCH	I	2017/06/02	2017/06/02	4891	5160231		2	2017/06/01	30.00000	2017/07/17	( As on 01/06/2017)<BR><BR>Admission of bonds :<BR><BR>As of 01/06/2017 the Euro medium term notesissued by CAISSE DEPOTS ET CONSIGNATIONS, willbelisted on EURONEXT PARIS.<BR><BR>thisissuancewillbeassimilated to bonds issued by CAISSE DES DEPOTS ET CONSIGNA-TIONS (ISIN code FR0013231479).<BR><BR><BR>Number of listedbonds : 150<BR>Par-value : 200.000 USD<BR>Total amount: 30.000.000 USD<BR>Issue amount: 100,108%<BR>Interestaccrued date : 17/04/2017<BR>Settlement date : 01/06/2017<BR>Interest rate : LIBOR + 0.2% margin per annum<BR>nextcoupon : 17/07/2017<BR>Coupon frequency: Quarterly<BR>Counting of days: ACT/360<BR>Redemption: At maturity<BR>Maturitydate : 17/01/2019<BR>Earlyredemption: Not applicable<BR>Issuanceunderprogramme : yes<BR>currency : USD<BR>ISIN : FR0013259314 <BR>symbol : CDCGU<BR>
TRNCH	I	2017/06/20	2017/06/20	4914	5177664		2	2017/06/20	250.00000	2018/03/03	( As on 19/06/2017)<BR><BR>Admission of bonds : <BR><BR>As of 20/06/2017 the Euro medium term notesissued by UNEDIC(UNI.INTERPRO.EMPLOI), willbe listing on EURONEXT PARIS.<BR><BR>This issuancewillbeassimilated to the bonds alreadyissued by UNEDIC (ISIN code FR0013128584) <BR><BR><BR>Number of listed bonds : 2.500<BR>Par-value : 100.000 EUR<BR>totalamount: 250.000.000 EUR<BR>issue price: 101,044%<BR>interestaccrued date : 03/03/2017<BR>settlement date : 20/06/2017<BR>interest rate : 0,625%<BR>nextcoupon : 03/03/2018<BR>couponfrequency: Annually<BR>counting of days: ACT/ACT (ICMA)<BR>redemption: At maturity<BR>maturityDate  : 03/03/2026<BR>earlyredemption: Not applicable<BR>issuanceunderprogramme : yes<BR>currency : EUR<BR>ISIN : FR0013262540 <BR>symbol : UNEBZ<BR>
TRNCH	I	2017/06/21	2017/06/21	4920	5179340		2	2017/02/27	250.00000	2018/01/20	
TRNCH	I	2017/06/23	2017/06/23	4924	5182328		2	2017/06/01	70.00000	2017/07/11	
TRNCH	I	2017/06/29	2017/06/29	4953	5189364		2	2017/07/03	350.00000	2017/08/12	
TRNCH	I	2017/07/03	2017/07/03	4959	5190929		1	2017/05/25	2000.00000	2017/07/05	
TRNCH	I	2017/07/14	2017/07/14	5026	5204548		2	2017/06/22	50.00000	2018/05/18	
TRNCH	I	2017/07/15	2017/07/17	5045	5205695		2	2017/06/20	1720.00000	2017/11/30	
TRNCH	I	2017/07/21	2017/07/21	5062	5212752		2	2017/07/18	150.00000	2017/08/28	
TRNCH	I	2017/07/21	2017/07/21	5064	5213026		2	2017/07/20	200.00000	2018/02/21	
TRNCH	I	2017/07/22	2017/07/24	5071	5214329		3	2017/07/25	200.00000	2017/11/30	
TRNCH	I	2017/09/11	2017/09/11	5133	5265069		2	2017/08/30	750.00000	2018/04/20	( As on 30/08/2017)<BR><BR>Admission of bonds :<BR><BR>As of 30/08/2017 the Euro medium term notes issuedby  UNE-DIC(UNI.INTERPRO.EMPLOI), willbelisted on  EURONEXT PARIS.<BR><BR>This issuancewillbeassimilated to the bonds alreadyissuedby  UNEDIC (ISIN code FR0013252228.<BR><BR><BR>Number of listedbonds: 7.500<BR>Par-value: 100.000 EUR<BR>Total amount: 750.000.000 EUR<BR>Issue price: 103,107%<BR>Interestaccrueddate: 20/04/2017<BR>Settlementdate: 30/08/2017<BR>Interest rate : 1,5%<BR>Next coupon : 20/04/2018<BR>Coupon frequency: Annually<BR>Counting of days: ACT/ACT (ICMA)<BR>redemption: At maturity<BR>maturitydate: 20/04/2032<BR>earlyredemption: Not applicable<BR>issuanceunderprogramme: yes<BR>currency : EUR<BR>ISIN : FR0013279924 <BR>symbol : UNECA<BR>
TRNCH	I	2017/10/02	2017/10/02	5186	5286285		4	2017/08/15	5.61487	2018/02/15	
TRNCH	I	2017/10/03	2017/10/03	5188	5287064		2	2017/09/20	500.00000	2018/06/19	
TRNCH	I	2017/10/04	2017/10/04	5193	5287998		4	2017/10/25	2.20000	2017/11/25	
TRNCH	I	2017/11/09	2017/11/09	5290	5324416		2	2017/04/06	40.00000	2017/10/08	
TRNCH	I	2017/11/23	2017/11/23	5312	5339385		2	2017/11/16	150.00000	2018/01/11	
TRNCH	I	2017/11/24	2017/11/24	5314	5340796		3	2017/11/16	50.00000	2018/02/21	As on 15/11/17<BR><BR>Admission of assimilateddebtsecurities :<BR><BR>As of 16/11/2017, admission of 500 Euro medium term notes BPCE SFHimmediatelyassimilated to 9.500 Euro medium term notes, alreadyissued by EURONEXT PARIS.<BR><BR><BR>Number of listed bonds: 500<BR>Nexnumber of outstanding bonds: 10.000<BR>Par-value: 100.000 EUR<BR>Issue price: 100,726%<BR>Interestaccrued date: 21/02/2017<BR>Settlement date: 16/11/2017<BR>Interest rate: 0,375%<BR>next coupon: 21/02/2018<BR>Coupon frequency: Annually<BR>Counting of days: ACT/ACT (ICMA)<BR>Redemption: At maturity<BR>Maturity date: 21/02/2024<BR>Earlyredemption: Not applicable<BR>currency : EUR<BR>ISIN : FR0013238219 <BR>symbol : BPCTA<BR>
TRNCH	I	2017/11/24	2017/11/24	5315	5341327		3	2017/11/16	50.00000	2018/02/21	
TRNCH	I	2017/12/07	2017/12/07	5334	5355420		2	2017/12/06	57.50000	2018/07/03	As on 05/12/17<BR><BR>As of 06/12/2017, admission of 575 bonds issued by FFP immediately assimilated to 1.550 bonds already listed on EURONEXT ACCESS PARIS.<BR><BR>Number of listed bonds: 575<BR>New number of outstanding bonds: 2.125<BR>Par-value: 100.000 EUR<BR>Interest accrued date: 03/07/2017<BR>Settlement date: 06/12/2017<BR>Interest rate: 2,5%<BR>next coupon: 03/07/2018<BR>Coupon frequency: Annually<BR>Counting of days: ACT/ACT (ICMA)<BR>redemption: At maturity<BR>Maturity date: 03/07/2025<BR>Early redemption: Applicable (Issuer or holder decision)<BR>ISIN : FR0013265485 <BR>sybol : FFPA<BR>
TRNCH	I	2017/12/08	2017/12/08	5344	5357184		3	2017/12/07	100.00000	2018/10/04	
TRNCH	I	2018/01/08	2018/01/08	5393	5385865		21	2017/12/27	35.4	2018/01/25	
TRNCH	I	2018/02/09	2018/02/09	5455	5426165		2	2018/01/24	1500	2019/01/18	
TRNCH	I	2018/02/13	2018/02/13	5462	5429770		2	2018/02/12	20	2018/10/18	( As on 12/02/2018)<BR><BR>This issuance will be assimilated to bonds already issued by SFIL (ISIN code FR0013288842)<BR>Admission of bonds :<BR><BR>As of 12/02/2018 the bonds (Euro medium term notes) issued by SFIL, willbelisted on EURONEXT PARIS.<BR><BR>Number of listed bonds : 200<BR>Par-value: 100.000 EUR<BR>Total amount: 20.000.000 EUR<BR>Issue price: 99,072%<BR>Interestaccrued date: 18/10/2017<BR>Settlement date: 12/02/2018<BR>Interest rate: 0,1%<BR>next coupon: 18/10/2018<BR>Coupon frequency: Annually<BR>Counting of days: ACT/ACT (ICMA)<BR>redemption: At maturity<BR>Maturity date: 18/10/2022<BR>Earlyredemption: Not applicable<BR>Issuanceunder programme: yes<BR>currency : EUR<BR>Guaranteed: Yes <BR>ISIN : FR0013317070 <BR>symbol : SFIAE<BR>
TRNCH	I	2018/02/19	2018/02/19	5480	5437452		2	2018/01/29	20	2018/03/10	
TRNCH	I	2018/03/23	2018/03/23	5570	5475960		5	2018/03/23	25	2019/03/23	
TRNCH	U	2018/03/26	2018/04/06	5573	5477695		4	2018/02/23	0.5	2018/04/05	
TRNCH	I	2018/04/07	2018/04/09	5638	5493292	XS1778521986	4	2018/02/22	60	2018/04/05	
TRNCH	I	2018/05/10	2018/05/10	5770	5527940		3	2018/02/13	2500	2019/01/18	
TRNCH	I	2018/05/10	2018/05/10	5774	5528167		2	2018/01/18	500	2018/10/12	
TRNCH	I	2018/05/10	2018/05/10	5775	5528171		3	2018/02/15	500	2018/10/12	
TRNCH	I	2018/05/10	2018/05/10	5778	5528278	USU72068AF38	2	2018/03/07	250	2018/05/04	
TRNCH	I	2018/05/24	2018/05/24	5808	5544524		7	2018/05/23	250	2019/05/18	
TRNCH	I	2018/05/25	2018/05/25	5810	5545394		2	2018/04/25	50	2018/09/07	
TRNCH	I	2018/05/25	2018/05/25	5811	5545399		3	2018/05/22	250	2018/09/07	
TRNCH	I	2018/06/13	2018/06/13	5869	5571821		3	2018/06/12	100	2019/04/30	
TRNCH	I	2018/06/20	2018/06/20	5886	5579640		4	2018/06/19	50	2018/09/07	
TRNCH	I	2018/07/06	2018/07/06	5906	5601276		2	2018/06/20	600	2019/05/12	
TRNCH	I	2018/07/10	2018/07/10	5915	5605321		4	2018/07/09	100	2019/05/29	
TRNCH	I	2018/08/02	2018/08/02	6047	5631129		4	2018/02/16	500	2019/01/18	
TRNCH	I	2018/08/08	2018/08/08	6063	5637052		2	2018/08/09	100	2019/01/31	
TRNCH	I	2018/08/14	2018/08/14	6085	5643991		5	2018/08/13	50	2018/09/07	
TRNCH	I	2018/08/31	2018/08/31	6119	5664333		2	2018/08/09	100	2018/09/18	
TRNCH	I	2018/08/31	2018/08/31	6121	5664660		5	2018/08/16	50	2019/02/22	Series : 1362(I)
TRNCH	I	2018/08/31	2018/08/31	6122	5664665		6	2018/08/16	50	2019/02/22	Series 1362(II)
TRNCH	I	2018/10/05	2018/10/05	6222	5703044		2	2018/10/04	100	2018/11/22	
TRNCH	I	2018/10/10	2018/10/10	6232	5707185		2	2018/10/10	50	2019/08/30	
TRNCH	I	2018/10/12	2018/10/12	6236	5709993		2	2018/10/12	60	2019/02/05	
TRNCH	I	2018/10/08	2018/10/08	6226	5704651		2	2018/10/08	30	2018/11/15	Listing/assimilation of bonds: <BR>As of 08/10/2018, the 300 bonds (Euro medium term notes) issued by FINANCEMENT FONCIER (CIE DE), will be immediately listed and assimilated to the 5.500 bonds (Euro medium term notes)already listed on EURONEXT PARIS.<BR><BR>Number of listed bonds: 300<BR>New number of outstanding bonds: 5.800<BR>Par-value: 100.000 EUR<BR>Issue price:            98.76% of the nominal amount of the tranche plus an amount corresponding to accrued interests at the rate of 1.11986301% of this nominal amount for the period starting from 15/11/2017 (included) to 08/10/2018 (excluded)<BR>Interest commencement date: 15/11/2017<BR>Settlement date:08/10/2018<BR>Interest rate: 1,25%<BR>Next coupon: 15/11/2018<BR>Coupon frequency: Annually<BR>Redemption type: At maturity<BR>Maturity date:15/11/2032<BR>Early redemption: Not Applicable <BR>ISIN: FR0013296159<BR>Symbol: ETANK<BR>
TRNCH	I	2018/10/13	2018/10/15	6251	5712441		8	2018/09/24	75	2019/09/07	
TRNCH	I	2018/10/13	2018/10/15	6252	5712442		9	2018/10/02	100	2019/09/07	
TRNCH	I	2018/10/15	2018/10/15	6256	5713699		2	2018/09/27	75	2019/09/08	
TRNCH	I	2018/10/16	2018/10/16	6263	5714826		2	2018/09/28	500	2019/05/12	
TRNCH	I	2018/10/19	2018/10/19	6278	5719813		3	2018/10/18	40	2019/02/05	
TRNCH	I	2018/10/27	2018/10/29	6289	5728889		2	2018/10/26	100	2018/12/05	
TRNCH	I	2018/10/29	2018/10/29	6290	5730734		2	2018/10/15	5	2019/10/08	
TRNCH	I	2018/11/01	2018/11/01	6333	5734983		29	2018/10/25	17	2019/11/25	
TRNCH	I	2018/11/07	2018/11/07	6352	5740253		2	2018/11/06	50	2019/10/30	
TRNCH	I	2018/11/07	2018/11/07	6353	5740260		4	2018/11/06	500	2019/10/12	
TRNCH	I	2018/11/12	2018/11/12	6364	5743803		7	2018/10/23	150	2019/05/29	
TRNCH	I	2018/11/12	2018/11/12	6367	5744347		2	2018/11/09	8000	2019/10/19	
TRNCH	I	2018/11/19	2018/11/19	6380	5751635		2	2018/03/02	10	2019/02/27	
TRNCH	I	2018/11/26	2018/11/26	6388	5758872		2	2018/11/21	100	2018/12/19	
TRNCH	I	2018/11/29	2018/11/29	6389	5762436		2	2018/11/21	2250	2019/01/02	( As on 21/11/2018 ) <BR><BR>ISIN:  CA509PGW73<BR>First Deposit Date: 21NOV2018<BR>Security Description: CANADA HOUSING TRUST NO.1 <BR>CANADA MORTGAGE 2.65% BOND SERIES 85 12/15/2028 (RE-OPENING) TEMP<BR>Principal Amount: CAD CAD CAD2,250,000,000 <BR>Maturity Date: 15DEC2028<BR>Payment Frequency: Semi Annual commencing 15DEC2018 (short first coupon)<BR>Exchange Feature:  From the Term Sheet: `Fungible into CA13509PGS61 after 40 days - 01JAN2019<BR>Coupon: 3.65%
TRNCH	I	2018/12/06	2018/12/06	6413	5768735		2	2018/11/26	35	2018/12/27	
TRNCH	I	2018/12/08	2018/12/10	6427	5771707		8	2018/12/04	50	2019/05/18	
TRNCH	I	2018/12/10	2018/12/10	6429	5772709		4	2018/11/05	100	2019/11/02	
TRNCH	I	2018/12/12	2018/12/12	6432	5775215		1	2018/10/16	700	2019/04/15	
TRNCH	I	2018/12/27	2018/12/27	6482	5791141		5	2018/05/18	500	2019/04/11	
TRNCH	I	2019/01/11	2019/01/11	6538	5808616		2	2019/01/04	7	2019/12/07	
TRNCH	I	2019/01/21	2019/01/21	6550	5819674		5	2019/01/11	500	2019/10/12	
TRNCH	I	2019/01/21	2019/01/21	6551	5819677		2	2019/01/11	1.2	2019/09/04	
TRNCH	I	2019/01/21	2019/01/21	6555	5820821		3	2019/01/15	150	2019/09/08	
TRNCH	I	2019/01/21	2019/01/21	6557	5821493		4	2019/01/16	350	2019/12/29	
TRNCH	I	2019/01/25	2019/01/25	6573	5827814		10	2019/01/23	200	2019/09/07	
TRNCH	I	2019/01/25	2019/01/25	6574	5827903		4	2019/01/23	50	2019/08/29	
TRNCH	I	2019/01/28	2019/01/28	6577	5828707		2	2019/01/24	250	2019/12/05	
TRNCH	I	2019/02/04	2019/02/04	6622	5838918		2	2019/02/01	2500	2019/10/25	
TRNCH	I	2019/02/08	2019/02/08	6628	5844200		9	2019/02/07	50	2019/05/18	
TRNCH	I	2019/03/01	2019/03/01	6651	5866570		11	2019/02/04	50	2019/09/07	
TRNCH	I	2019/03/06	2019/03/06	6655	5871857		4	2019/03/05	100	2019/07/05	
TRNCH	I	2019/03/09	2019/03/11	6659	5876984	MT0000111329	2	2019/03/28	20	2019/12/20	
TRNCH	I	2019/03/12	2019/03/12	6662	5878738		2	2019/02/14	250	2019/11/10	
TRNCH	I	2019/03/16	2019/03/18	6682	5884008		2	2019/02/22	50	2020/02/14	
TRNCH	I	2019/03/16	2019/03/18	6683	5884032		2	2019/02/22	150	2019/03/27	
TRNCH	I	2019/03/18	2019/03/18	6713	5886197		5	2018/11/26	25	2019/09/28	
TRNCH	I	2019/03/18	2019/03/18	6714	5886199		6	2019/03/05	40	2019/09/28	
TRNCH	I	2019/03/19	2019/03/19	6715	5886854		2	2019/03/04	100	2019/09/15	
TRNCH	I	2019/03/19	2019/03/19	6716	5887071		3	2019/03/18	120	2019/08/30	
TRNCH	I	2019/03/20	2019/03/20	6718	5888358		2	2019/03/19	60	2019/10/27	
TRNCH	I	2019/03/23	2019/03/25	6732	5893197		3	2019/03/12	500	2019/09/15	
TRNCH	I	2019/03/25	2019/03/25	6736	5893916		10	2019/03/15	50	2019/05/18	
TRNCH	I	2019/03/25	2019/03/25	6742	5894136		5	2019/03/18	250	2019/12/29	
TRNCH	I	2019/03/28	2019/03/28	6772	5898370		2	2019/03/26	124	2020/03/15	
TRNCH	I	2019/04/04	2019/04/04	6782	5906207		2	2019/04/03	50	2019/10/31	
TRNCH	I	2019/04/04	2019/04/04	6783	5906232		5	2019/04/03	50	2020/01/31	
TRNCH	I	2019/04/09	2019/04/09	6790	5910304		2	2019/04/08	250	2019/12/20	
TRNCH	I	2019/04/18	2019/04/18	6802	5923018		2	2018/08/30	250	2019/05/30	
TRNCH	I	2019/04/19	2019/04/19	6806	5924784		2	2019/01/23	150	2020/01/09	
TRNCH	I	2019/04/19	2019/04/19	6807	5924790		3	2019/01/28	100	2020/01/09	
TRNCH	I	2019/05/02	2019/05/02	6824	5937827	USL56608AD13	2	2019/04/30	400	2019/10/15	
TRNCH	I	2019/05/09	2019/05/09	6825	5944341		2	2019/05/09	500	2019/12/06	
TRNCH	I	2019/05/16	2019/05/16	6830	5952699	XS1995796064	8	2019/05/15	50	2019/10/15	
TRNCH	I	2019/05/22	2019/05/22	6844	5960835	USU1468GAB06	2	2019/05/24	250	2019/10/01	
TRNCH	I	2019/05/24	2019/05/24	6845	5962688		2	2019/05/23	60	2019/11/16	
TRNCH	I	2019/05/25	2019/05/27	6846	5964339		2	2019/05/24	10	2020/01/22	
TRNCH	I	2019/05/29	2019/05/29	6862	5968167		2	2019/05/17	75	2020/03/21	
TRNCH	I	2019/05/31	2019/05/31	6876	5971000	FR0013422201	2	2019/05/29	1000	2020/05/25	
TRNCH	I	2019/06/01	2019/06/03	6897	5972634		2	2019/05/30	175	2019/08/26	
TRNCH	I	2019/06/01	2019/06/03	6898	5972647		2	2019/05/31	275	2019/11/12	
TRNCH	I	2019/06/12	2019/06/12	6920	5983141	XS2000238977	2	2019/06/03	175	2019/10/24	
TRNCH	I	2019/06/12	2019/06/12	6921	5983156	XS2007800274	2	2019/06/05	220	2019/10/25	
TRNCH	I	2019/06/15	2019/06/17	6924	5986610	XS1989338725	2	2019/06/05	150	2019/11/05	
TRNCH	I	2019/06/19	2019/06/19	6928	5991162	USU5464JAC72	2	2019/06/21	35	2019/11/01	
TRNCH	I	2019/06/25	2019/06/25	6938	5998761	USU1022TAB18	2	2019/07/03	60	2019/11/01	
TRNCH	I	2019/06/25	2019/06/25	6939	5998766	USU44927AT57	2	2019/06/27	500	2019/11/15	
TRNCH	I	2019/06/26	2019/06/26	6940	6000885	USU12501AZ27	2	2019/07/10	750	2019/12/01	
TRNCH	I	2019/06/28	2019/06/28	6946	6003981		2	2019/04/23	25	2020/04/18	
TRNCH	I	2019/07/05	2019/07/05	6953	6010165		2	2019/07/05	600	2019/11/15	
TRNCH	I	2019/07/09	2019/07/09	6964	6014439		19	2018/11/20	2140	2019/11/15	
TRNCH	I	2019/07/09	2019/07/09	6965	6014441		20	2018/12/18	4040	2019/11/15	
TRNCH	I	2019/07/09	2019/07/09	6966	6014442		21	2019/01/22	520	2019/11/15	
TRNCH	I	2019/07/09	2019/07/09	6967	6014446		22	2019/02/19	2240	2019/11/15	
TRNCH	I	2019/07/09	2019/07/09	6968	6014461		23	2019/03/19	920	2019/11/15	
TRNCH	I	2019/07/09	2019/07/09	6969	6014466		24	2019/04/17	820	2019/11/15	
TRNCH	I	2019/07/09	2019/07/09	6970	6014468		25	2019/05/23	1560	2019/11/15	
TRNCH	I	2019/07/09	2019/07/09	6971	6014475		26	2019/06/19	1380	2019/11/15	
TRNCH	I	2019/07/10	2019/07/10	6972	6015334	FR0013433604	2	2019/07/10	200	2019/09/09	
TRNCH	I	2019/07/15	2019/07/15	6980	6021518	USU08985AH30	2	2019/07/25	75	2019/12/01	
TRNCH	I	2019/07/24	2019/07/24	6997	6034684	USU33825AB38	2	2019/07/26	125	2019/11/15	
TRNCH	U	2019/07/25	2019/07/26	7002	6036867	USP9379RBB26	2	2019/07/18	1069686	2019/08/27	
TRNCH	I	2019/07/26	2019/07/26	7006	6038127		30	2019/07/25	68.2	2019/08/27	
TRNCH	I	2019/07/27	2019/07/29	7015	6039299	XS2028816887	3	2019/07/16	220	2019/08/26	
TRNCH	I	2019/07/30	2019/07/30	7024	6042483		8	2019/07/25	0.6	2019/08/27	
TRNCH	I	2019/07/30	2019/07/30	7026	6042494		8	2019/07/25	7.3	2019/08/27	
TRNCH	I	2019/07/31	2019/07/31	7027	6042892		2	2019/05/31	25	2020/05/10	
TRNCH	I	2019/07/31	2019/07/31	7028	6042894		3	2019/06/24	50	2020/05/10	
TRNCH	I	2019/07/31	2019/07/31	7029	6043031		8	2019/06/21	0.5	2019/08/29	
TRNCH	I	2019/07/31	2019/07/31	7031	6043055		29	2019/07/25	1.9	2019/08/26	
TRNCH	I	2019/08/01	2019/08/01	7035	6044999		18	2019/07/25	27.2	2019/08/27	
TRNCH	I	2019/08/02	2019/08/02	7039	6046260		22	2019/07/25	12.2	2019/08/26	
TRNCH	I	2019/08/02	2019/08/02	7040	6046272		12	2019/07/25	3.8	2019/08/26	
TRNCH	I	2019/08/03	2019/08/05	7041	6048014	XS2029520892	2	2019/07/18	300	2019/08/27	
TRNCH	I	2019/08/05	2019/08/05	7049	6048981		18	2019/07/25	9.1	2019/08/27	
TRNCH	I	2019/08/06	2019/08/06	7053	6049426		16	2019/07/25	6.8	2019/08/27	
TRNCH	I	2019/08/06	2019/08/06	7055	6049437		36	2019/07/25	9.1	2019/08/27	
TRNCH	I	2019/08/06	2019/08/06	7058	6049447		36	2019/07/25	9.1	2019/08/27	
TRNCH	I	2019/08/06	2019/08/06	7060	6049451		36	2019/07/25	13.6	2019/08/27	
TRNCH	I	2019/08/06	2019/08/06	7061	6049456		36	2019/07/25	27.2	2019/08/27	
TRNCH	I	2019/08/06	2019/08/06	7068	6049682		29	2019/07/25	9.7	2019/08/26	
TRNCH	I	2019/08/06	2019/08/06	7069	6049690		2	2019/07/25	3.8	2019/08/26	
TRNCH	I	2019/08/06	2019/08/06	7075	6049720		29	2019/07/25	5.7	2019/08/26	
TRNCH	I	2019/08/07	2019/08/07	7077	6052352		3	2019/07/09	140	2019/12/18	
TRNCH	I	2019/08/08	2019/08/08	7080	6054882	XS2027377576	2	2019/07/15	200	2019/08/26	
TRNCH	I	2019/08/09	2019/08/09	7083	6055084		35	2019/07/25	13.6	2019/08/27	
TRNCH	I	2019/08/09	2019/08/09	7086	6056505	XS2028117104	4	2019/07/17	65	2020/01/30	
TRNCH	I	2019/08/09	2019/08/09	7087	6056726		18	2019/07/25	3.13	2019/08/26	
TRNCH	I	2019/08/10	2019/08/12	7088	6057032	XS2031218493	6	2019/07/19	20	2019/08/28	
TRNCH	I	2019/08/10	2019/08/12	7089	6057386	XS2026145743	2	2019/07/18	250	2019/08/27	
TRNCH	I	2019/08/10	2019/08/12	7091	6057426		4	2019/07/29	1000	2020/03/20	
TRNCH	I	2019/08/10	2019/08/12	7093	6057445	XS2031170785	2	2019/07/23	100	2019/09/02	
TRNCH	I	2019/08/10	2019/08/12	7095	6057462	XS2019806749	4	2019/08/01	0.194	2019/10/03	
TRNCH	I	2019/08/10	2019/08/12	7097	6057475		31	2019/07/25	2.7	2019/08/27	
TRNCH	I	2019/08/10	2019/08/12	7098	6057542		7	2019/07/30	0.944582	2019/09/30	
TRNCH	I	2019/08/10	2019/08/12	7100	6057549		37	2019/07/25	2.7	2019/08/27	
TRNCH	I	2019/08/12	2019/08/12	7101	6058260	XS2030412923	2	2019/07/23	35	2019/09/02	
TRNCH	I	2019/08/12	2019/08/12	7105	6059212		36	2019/07/25	6.8	2019/08/27	
TRNCH	I	2019/08/12	2019/08/12	7107	6059764	XS2032050077	2	2019/07/24	167.6	2019/09/02	
TRNCH	I	2019/08/12	2019/08/12	7109	6059821		33	2019/07/25	27.2	2019/08/27	
TRNCH	I	2019/08/14	2019/08/14	7113	6062020	XS2034727144	2	2019/07/29	100	2019/09/07	
TRNCH	I	2019/08/14	2019/08/14	7114	6063083	XS2038866161	9	2019/08/12	100	2019/10/04	
TRNCH	I	2019/08/14	2019/08/14	7115	6063216		2	2019/07/30	5.7775	2019/09/30	
TRNCH	I	2019/08/14	2019/08/14	7116	6063429	XS2035477731	3	2019/07/31	200	2019/09/09	
TRNCH	I	2019/08/16	2019/08/16	7117	6066982	XS2041076709	2	2019/08/15	123	2019/09/24	
TRNCH	I	2019/08/16	2019/08/16	7118	6067695		4	2019/08/13	100	2019/09/23	
TRNCH	I	2019/08/16	2019/08/16	7119	6067697	XS2040213253	7	2019/08/14	150	2019/09/23	
TRNCH	I	2019/08/19	2019/08/19	7120	6069739	XS2039787150	2	2019/08/12	130	2019/09/21	
TRNCH	I	2019/08/19	2019/08/19	7121	6069780	XS2019804371	8	2019/08/14	43	2020/03/04	Tranche Eight Notes, EUR 33,000,000; and Tranche Eight Notes, 112.00 per cent<BR>Tranche Nine Notes, EUR 10,000,000  and Tranche Nine Notes, 112.15 per cent
TRNCH	I	2019/08/20	2019/08/20	7122	6072106	XS2042538541	2	2019/08/19	850	2019/09/30	
TRNCH	I	2019/08/20	2019/08/20	7124	6072177		5	2019/08/14	50	2019/09/23	Temporary ISIN XS2039837948
TRNCH	I	2019/08/20	2019/08/20	7126	6072579	XS2039837948	4	2019/08/13	100	2019/09/23	
TRNCH	I	2019/08/20	2019/08/20	7127	6072588	XS2041693578	2	2019/08/15	100	2019/09/24	
TRNCH	I	2019/08/20	2019/08/20	7128	6073399	XS2042515689	4	2019/08/19	250	2019/09/30	
EDI_ENDOFFILE
